#Target_values=[900, 100, 10]
#Random_seed=2
#simTime=400
#res_MinT=350
#inhibitorType=1
#number_of_curves=1
#res_MaxT=400
#inhibitionTime=3500
HCV_Pars,degrRate,virFormation,cellFactor,virOut,o_cellInf,o_virDegr,R2,987654321
