#Target_values=[900, 100, 10]
#Random_seed=2
#simTime=400
#res_MinT=350
#inhibitorType=1
#number_of_curves=1
#res_MaxT=400
#inhibitionTime=3500
HCV_Pars,degrRate,virFormation,cellFactor,virOut,o_cellInf,o_virDegr,R2,987654321
HCV_Pars,0.956474,1.896177,1.339308,0.178895,0.417751,0.738610,R2,2.15||[[0.0, 1000.0, 0.0, 0.0, 0.0, 0.0, 1.0, 0.0, 0.0, 0.0], [0.0, 1000.9625680164177, 1.0, 0.0, 0.0, 0.0, 0.0, 0.0, 0.0, 0.0], [0.0, 1000.0003995353271, 1.0, 0.0, 0.0, 0.0, 0.0, 0.0, 0.0, 0.0], [0.0, 1000.4300707893389, 1.0, 0.0, 0.0, 0.0, 0.0, 0.0, 0.0, 0.0], [0.0, 1000.0, 1.0, 0.0, 0.0, 0.0, 0.0, 0.0, 0.0, 0.0], [0.0, 1001.0, 1.0, 0.0, 0.0, 0.0, 0.0, 0.0, 0.0, 0.0], [0.0, 1000.1398853557213, 2.0, 0.0, 0.0, 0.0, 0.0, 0.0, 0.0, 0.0], [0.0, 999.0, 1.7721372101945114, 0.0, 0.0, 0.0, 0.0, 0.0, 0.0, 0.0], [0.0, 999.86024334845513, 1.0, 0.0, 0.0, 0.0, 0.0, 0.0, 0.0, 0.0], [0.0, 1000.0, 1.0, 0.0, 0.0, 0.0, 0.0, 0.0, 0.0, 0.0], [0.0, 998.0, 2.0, 0.0, 0.0, 0.0, 0.0, 0.0, 0.0, 0.0], [0.0, 998.67904512931887, 1.3209548706811327, 0.0, 0.0, 0.0, 0.0, 0.0, 0.0, 0.0], [0.0, 998.02627989734651, 1.0, 0.0, 0.0, 0.0, 0.0, 0.0, 0.0, 0.0], [0.0, 998.92721036074704, 1.0, 0.0, 0.0, 0.0, 0.92721036074708529, 0.0, 0.0, 0.0], [0.0, 998.95846896995249, 2.0415310300474938, 0.0, 0.0, 0.0, 0.47923448497625315, 0.0, 0.0, 0.0], [0.0, 1000.0, 2.0, 0.0, 0.0, 0.0, 0.10286906910919551, 0.0, 0.0, 0.0], [0.0, 1000.1552486496435, 1.8447513503565394, 0.0, 0.0, 0.0, 0.57762432482173032, 0.0, 0.0, 0.0], [0.0, 998.76089319899802, 2.0, 0.0, 0.0, 0.0, 0.0, 0.0, 0.0, 0.0], [0.0, 996.0, 4.0, 0.0, 0.0, 0.0, 0.49356597781278605, 0.0, 0.0, 0.0], [0.0, 998.05016180014343, 1.9498381998566154, 0.0, 0.0, 0.0, 0.76254045003584614, 0.0, 0.0, 0.0], [0.0, 997.43369080000241, 2.1326183999951493, 0.0, 0.0, 0.0, 0.86738160000485065, 0.0, 0.0, 0.0], [0.0, 996.0, 3.0, 0.0, 0.0, 0.0, 0.0, 0.0, 0.0, 0.0], [0.0, 995.67789342247579, 3.3221065775242291, 0.0, 0.0, 0.0, 0.67789342247577067, 0.0, 0.0, 0.0], [0.0, 996.83770036393184, 2.1622996360681643, 0.0, 0.0, 0.0, 0.61256678797727859, 0.0, 0.0, 0.0], [0.0, 997.95144080982629, 2.0, 0.0, 0.0, 0.0, 0.0, 0.0, 0.0, 0.0], [0.0, 997.0, 1.1595548209528657, 0.0, 0.0, 0.0, 0.0, 0.0, 0.0, 0.0], [0.0, 997.0, 1.0, 0.0, 0.0, 0.0, 0.0, 0.0, 0.0, 0.0], [0.0, 995.16215301784791, 2.0, 0.0, 0.0, 0.0, 0.83784698215211251, 0.0, 0.0, 0.0], [0.0, 995.0, 2.0, 0.0, 0.0, 0.0, 0.96318786314485794, 0.0, 0.0, 0.0], [0.0, 996.61113952727248, 1.2592403151517075, 0.0, 0.0, 0.0, 0.87037984242414623, 0.0, 0.0, 0.0], [0.0, 998.86629812824219, 1.1337018717577898, 0.0, 0.0, 0.0, 2.598894384726631, 0.0, 0.0, 0.0], [0.0, 997.1723524573423, 2.8276475426576866, 0.0, 0.0, 0.0, 0.0, 0.0, 0.0, 0.0], [0.0, 998.83742203385191, 1.1625779661481315, 0.0, 0.0, 0.0, 0.0, 0.0, 0.0, 0.0], [0.0, 998.0, 1.0, 0.0, 0.0, 0.0, 0.32180559163948469, 0.0, 0.0, 0.0], [0.0, 997.0, 2.0, 0.0, 0.0, 0.0, 0.0, 0.0, 0.0, 0.0], [0.0, 996.24016385392713, 2.0, 0.0, 0.0, 0.0, 1.5196722921458456, 0.0, 0.0, 0.0], [0.0, 996.0, 3.6009567201391137, 0.0, 0.0, 0.0, 0.39904327986088628, 0.0, 0.0, 0.0], [0.0, 995.13950406498054, 3.0, 0.0, 0.0, 0.0, 3.4419837400776694, 0.0, 0.0, 0.0], [0.0, 990.61457704214251, 4.3854229578574904, 0.0, 0.0, 0.0, 0.30728852107125482, 0.0, 0.0, 0.0], [0.0, 992.89708531857013, 2.1029146814298927, 0.0, 0.0, 0.0, 0.89708531857010743, 0.0, 0.0, 0.0], [0.0, 991.91479924738974, 3.0, 0.0, 0.0, 0.0, 0.085200752610240113, 0.0, 0.0, 0.0], [0.0, 992.13822878341728, 2.8617712165827021, 0.0, 0.0, 0.0, 0.75881918894486533, 0.0, 0.0, 0.0], [0.0, 993.84395150402952, 1.1560484959705, 0.0, 0.0, 0.0, 1.8959676693530001, 0.0, 0.0, 0.0], [0.0, 991.66730977878296, 3.3326902212170371, 0.0, 0.0, 0.0, 0.0, 0.0, 0.0, 0.0], [0.0, 993.5240055584552, 2.4759944415447581, 0.0, 0.0, 0.0, 0.5240055584552421, 0.0, 0.0, 0.0], [0.0, 991.0, 3.0, 0.0, 0.0, 0.0, 0.3350159468701514, 0.0, 0.0, 0.0], [0.0, 991.58554813486705, 2.4144518651329427, 0.0, 0.0, 0.0, 3.1710962697341145, 0.0, 0.0, 0.0], [0.0, 983.76148932387957, 10.238510676120464, 0.0, 0.0, 0.0, 0.0, 0.0, 0.0, 0.0], [0.0, 988.95728079223852, 5.042719207761488, 0.0, 0.0, 0.0, 0.0, 0.0, 0.0, 0.0], [0.0, 993.0, 1.0, 0.0, 0.0, 0.0, 0.0, 0.0, 0.0, 0.0], [0.0, 992.69919694464249, 1.3008030553574945, 0.0, 0.0, 0.0, 0.69919694464250548, 0.0, 0.0, 0.0], [0.0, 989.33701551920069, 2.6629844807992948, 0.0, 0.0, 0.0, 0.3370155192007051, 0.0, 0.0, 0.0], [0.0, 988.50180135830283, 2.4981986416971242, 0.0, 0.0, 0.0, 0.50180135830287564, 0.0, 0.0, 0.0], [0.0, 988.04823265158916, 5.9517673484108187, 0.0, 0.0, 0.0, 0.048232651589181358, 0.0, 0.0, 0.0], [0.0, 991.02659231569896, 3.4867038421505403, 0.0, 0.0, 0.0, 0.0, 0.0, 0.0, 0.0], [0.0, 993.06292029993608, 1.9685398500319384, 0.0, 0.0, 0.0, 0.062920299936123247, 0.0, 0.0, 0.0], [0.0, 992.0, 4.0, 0.0, 0.0, 0.0, 0.58621368327772527, 0.0, 0.0, 0.0], [0.0, 990.0, 6.0, 0.0, 0.0, 0.0, 0.62930547603698339, 0.0, 0.0, 0.0], [0.0, 991.0, 5.0, 0.0, 0.0, 0.0, 0.16151281872492029, 0.0, 0.0, 0.0], [0.0, 991.84584535972749, 4.154154640272524, 0.0, 0.0, 0.0, 0.0, 0.0, 0.0, 0.0], [0.0, 993.0, 2.9456256735133359, 0.0, 0.0, 0.0, 0.054374326486664154, 0.0, 0.0, 0.0], [0.0, 990.20874347702238, 4.7912565229776023, 0.0, 0.0, 0.0, 0.20874347702239804, 0.0, 0.0, 0.0], [0.0, 991.48071644100423, 4.8894626692468099, 0.0, 0.0, 0.0, 0.37017911025106337, 0.0, 0.0, 0.0], [0.0, 995.8858636300688, 2.1141363699312574, 0.0, 0.0, 0.0, 0.88586363006874269, 0.0, 0.0, 0.0], [0.0, 994.0, 4.0, 0.0, 0.0, 0.0, 0.81010904611463275, 0.0, 0.0, 0.0], [0.0, 992.80202525565051, 5.7474684304368253, 0.0, 0.0, 0.0, 1.8020252556505398, 0.0, 0.0, 0.0], [0.0, 989.42967178799279, 7.5703282120072082, 0.0, 0.0, 0.0, 0.0, 0.0, 0.0, 0.0], [0.0, 993.0, 2.9651833762162951, 0.0, 0.0, 0.0, 0.51740831189185255, 0.0, 0.0, 0.0], [0.0, 992.07036386690243, 2.0, 0.0, 0.0, 0.0, 0.070363866902395641, 0.0, 0.0, 0.0], [0.0, 993.46009751592715, 1.5399024840728259, 0.0, 0.0, 0.0, 0.73004875796358704, 0.0, 0.0, 0.0], [0.0, 993.0, 2.0, 0.0, 0.0, 0.0, 0.0, 0.0, 0.0, 0.0], [0.0, 993.0, 1.8602539246485621, 0.0, 0.0, 0.0, 0.55898430140575195, 0.0, 0.0, 0.0], [0.0, 993.0, 1.2953141771497305, 0.0, 0.0, 0.0, 2.8187432914010779, 0.0, 0.0, 0.0], [0.0, 989.1465818146213, 4.4267090926893555, 0.0, 0.0, 0.0, 1.1465818146212889, 0.0, 0.0, 0.0], [0.0, 986.0, 6.0, 0.0, 0.0, 0.0, 0.89235433167265177, 0.0, 0.0, 0.0], [0.0, 990.67590437818319, 3.2160637478779037, 0.0, 0.0, 0.0, 0.89196812606104814, 0.0, 0.0, 0.0], [0.0, 992.39507204834638, 2.6049279516536115, 0.0, 0.0, 0.0, 0.79014409669277741, 0.0, 0.0, 0.0], [0.0, 989.20174110880112, 5.7982588911988406, 0.0, 0.0, 0.0, 0.40348221760231878, 0.0, 0.0, 0.0], [0.0, 985.96005353910778, 7.0798929217844737, 0.0, 0.0, 0.0, 3.840214156431053, 0.0, 0.0, 0.0], [0.0, 977.86889998892138, 14.13110001107864, 0.0, 0.0, 0.0, 1.0861249861517006, 0.0, 0.0, 0.0], [0.0, 981.52883643149619, 8.4711635685038331, 0.0, 0.0, 0.0, 4.5288364314961678, 0.0, 0.0, 0.0], [0.0, 976.22742702621679, 10.882940541466478, 0.0, 0.0, 0.0, 5.3377945939001412, 0.0, 0.0, 0.0], [0.0, 978.4096592712857, 9.0220641834999658, 0.0, 0.0, 0.0, 2.8413827260714526, 0.0, 0.0, 0.0], [0.0, 976.92078598811599, 7.23764203565195, 0.0, 0.0, 0.0, 1.8415719762320328, 0.0, 0.0, 0.0], [0.0, 977.53482858820223, 7.0, 0.0, 0.0, 0.0, 0.0, 0.0, 0.0, 0.0], [0.0, 981.84207625262513, 4.1579237473748627, 0.0, 0.0, 0.0, 0.28069208420837893, 0.0, 0.0, 0.0], [0.0, 984.0, 3.0, 0.0, 0.0, 0.0, 0.92443446019085374, 0.0, 0.0, 0.0], [0.0, 981.0971210393742, 4.0, 0.0, 0.0, 0.0, 0.0, 0.0, 0.0, 0.0], [0.0, 983.48840867424701, 2.0, 0.0, 0.0, 0.0, 0.51159132575301447, 0.0, 0.0, 0.0], [0.0, 981.25032630090436, 4.4993473981913361, 0.0, 0.0, 0.0, 1.2516315045216586, 0.0, 0.0, 0.0], [0.0, 978.14234609790333, 7.8932404265724818, 0.0, 0.0, 0.0, 0.21351914685503579, 0.0, 0.0, 0.0], [0.0, 979.45172455643717, 8.0413789516253171, 0.0, 0.0, 0.0, 2.9586210483746829, 0.0, 0.0, 0.49310350806244713], [0.0, 979.86058922702512, 8.1394107729748377, 0.0, 0.0, 1.0, 1.8605892270251623, 0.0, 0.0, 0.0], [0.0, 982.40216476108344, 6.6983764291873795, 0.0, 0.0, 0.0, 0.60324714162524029, 0.0, 0.0, 0.0], [0.0, 982.34165508916954, 7.6583449108304436, 0.0, 0.0, 0.0, 0.78055169638985211, 0.0, 0.0, 0.0], [0.0, 987.37627668205823, 2.623723317941776, 0.0, 0.0, 0.0, 0.76803952600831771, 0.0, 0.0, 0.0], [0.0, 987.0, 3.0, 0.0, 0.0, 0.0, 0.0, 0.0, 0.0, 0.0], [0.0, 989.51724696017698, 2.2413765199115159, 0.0, 0.0, 0.0, 1.5172469601769683, 0.0, 0.0, 0.0], [0.0, 985.0, 6.0, 0.0, 0.0, 0.0, 1.6995540595757759, 0.0, 0.0, 0.0], [0.0, 983.98850482221849, 7.0114951777814767, 0.0, 0.0, 0.0, 2.9827572333277845, 0.0, 0.0, 0.0], [0.0, 984.88560439472724, 5.114395605272807, 0.0, 0.0, 0.0, 1.731362636836316, 0.0, 0.0, 0.0], [0.0, 981.68826450459733, 6.6558677477013193, 0.0, 0.0, 0.0, 0.68826450459736099, 0.0, 0.0, 0.0], [0.0, 984.63910723437721, 4.3608927656228218, 0.0, 0.0, 0.0, 1.0397449241077652, 0.0, 0.0, 0.0], [0.0, 985.08824297656804, 4.0, 0.0, 0.0, 0.0, 0.35297190627208147, 0.0, 0.0, 0.0], [0.0, 984.79554254914171, 5.403343088143723, 0.0, 0.0, 0.0, 1.1933138237125533, 0.0, 0.0, 0.0], [0.0, 982.0, 9.0, 0.0, 0.0, 0.0, 0.0, 0.0, 0.0, 0.0], [0.0, 982.31977866302066, 8.4935300773149436, 0.0, 0.0, 0.0, 4.0665437016781611, 0.0, 0.0, 0.0], [0.0, 979.03506945144215, 11.619907398077062, 0.0, 0.0, 0.0, 0.51753472572110149, 0.0, 0.0, 0.0], [0.0, 982.0, 6.8755859057553543, 0.0, 0.0, 0.0, 0.12441409424464549, 0.0, 0.0, 0.0], [0.0, 985.15636513985726, 3.8436348601427057, 0.0, 0.0, 0.0, 0.0, 0.0, 0.0, 0.0], [0.0, 984.0, 4.0, 0.0, 0.0, 0.0, 0.31202179702644622, 0.0, 0.0, 0.0], [0.0, 983.109025162325, 3.8909748376750479, 0.0, 0.0, 0.0, 1.054512581162476, 0.0, 0.0, 0.0], [0.0, 983.7027230883366, 3.2972769116634351, 0.0, 0.0, 0.0, 0.0, 0.0, 0.0, 0.0], [0.0, 982.09139119511178, 5.0, 0.0, 0.0, 0.0, 0.0, 0.0, 0.0, 0.0], [0.0, 980.4161969042915, 6.3063384928474377, 0.0, 0.0, 0.0, 0.83239380858307477, 0.0, 0.0, 0.0], [0.0, 977.06754599464193, 7.8649080107160811, 0.0, 0.0, 0.0, 0.0, 0.0, 0.0, 0.0], [0.0, 971.47149032633968, 11.528509673660281, 0.0, 0.0, 0.0, 0.9429806526794362, 0.0, 0.0, 0.0], [0.0, 977.13549743381782, 6.4916020529457619, 0.0, 0.0, 0.0, 3.1354974338177981, 0.0, 0.0, 0.0], [0.0, 972.34386744965445, 11.656132550345529, 0.0, 0.0, 0.0, 2.2397790827574533, 0.0, 0.0, 0.0], [0.0, 977.50035355923535, 7.4996464407646819, 0.0, 0.0, 0.0, 0.0, 0.0, 0.0, 0.0], [0.0, 981.93084259865236, 4.0691574013475869, 0.0, 0.0, 0.0, 2.7925277959572403, 0.0, 0.0, 0.0], [0.0, 975.14812409650779, 8.0864598391537132, 0.0, 0.0, 0.0, 0.7654160643385145, 0.0, 0.0, 0.0], [0.0, 976.13714799036222, 5.7942780144566575, 0.0, 0.0, 0.0, 0.20572198554334242, 0.0, 0.0, 0.0], [0.0, 975.0, 5.2549409910122638, 0.0, 0.0, 0.0, 0.74505900898773647, 0.0, 0.0, 0.0], [0.0, 975.95287706166391, 3.0471229383360781, 0.0, 0.0, 0.0, 0.97643853083196108, 0.0, 0.0, 0.0], [0.0, 974.39131306004765, 5.2173738799046747, 0.0, 0.0, 0.0, 0.78262612009532539, 0.0, 0.0, 0.0], [0.0, 972.0, 6.385634094285102, 0.0, 0.0, 0.0, 0.61436590571489846, 0.0, 0.0, 0.0], [0.0, 976.07805325144318, 1.9219467485568131, 0.0, 0.0, 0.0, 0.46831950865912142, 0.0, 0.0, 0.0], [0.0, 976.71486245894721, 1.2851375410527894, 0.0, 0.0, 0.0, 4.2891747536832634, 0.0, 0.0, 0.0], [0.0, 973.42617495070749, 5.5738250492924895, 0.0, 0.0, 0.0, 0.0, 0.0, 0.0, 0.0], [0.0, 976.40653846920281, 2.5934615307972138, 0.0, 0.0, 0.0, 0.40653846920278602, 0.0, 0.0, 0.0], [0.0, 976.3073276374613, 1.6926723625387547, 0.0, 0.0, 0.0, 0.0, 0.0, 0.0, 0.0], [0.0, 975.53479662333939, 1.4652033766606043, 0.0, 0.0, 0.0, 0.53479662333939582, 0.0, 0.0, 0.0], [0.0, 976.16650124236287, 2.2223325050914493, 0.0, 0.0, 0.0, 0.77766749490855047, 0.0, 0.0, 0.0], [0.0, 976.19284249004193, 3.8071575099580781, 0.0, 0.0, 0.0, 0.578527470125766, 0.0, 0.0, 0.0], [0.0, 973.95149490096378, 5.0485050990362081, 0.0, 0.0, 0.0, 0.95149490096379208, 0.0, 0.0, 0.0], [0.0, 971.87954247297944, 6.2409150540411353, 0.0, 0.0, 0.0, 0.87954247297943222, 0.0, 0.0, 0.0], [0.0, 971.29810511715118, 7.1698248047479964, 0.0, 0.0, 0.0, 1.5320700781008014, 0.0, 0.0, 0.0], [0.0, 974.47234890248387, 2.7822596137688169, 0.0, 0.0, 0.0, 4.472348902483871, 0.0, 0.0, 0.0], [0.0, 968.03998528475131, 7.9600147152486915, 0.0, 0.0, 0.0, 2.549981605939136, 0.0, 0.0, 0.0], [0.0, 965.83889297849919, 9.1611070215007722, 0.0, 0.0, 0.0, 1.8388929784992272, 0.0, 0.0, 0.0], [0.0, 967.68518222169587, 7.1777813339650258, 0.0, 0.0, 0.0, 0.4111093330174872, 0.0, 0.0, 0.0], [0.0, 968.06996374697428, 5.0, 0.0, 0.0, 0.0, 0.93003625302572035, 0.0, 0.0, 0.0], [0.0, 962.0, 9.2711049193121777, 0.0, 0.0, 0.0, 0.72889508068782283, 0.0, 0.0, 0.0], [0.0, 967.91130792925526, 2.2247785795878885, 0.0, 0.0, 0.0, 1.7278269823138024, 0.0, 0.0, 0.0], [0.0, 969.16318497176201, 1.0, 0.0, 0.0, 0.0, 0.1631849717620476, 0.0, 0.0, 0.0], [0.0, 969.0, 2.0, 0.0, 0.0, 0.0, 2.1604338964791605, 0.0, 0.0, 0.0], [0.0, 963.93649269467687, 7.0635073053231725, 0.0, 0.0, 0.0, 0.93649269467682728, 0.0, 0.0, 0.0], [0.0, 965.7425043970652, 4.1604938441087569, 0.0, 0.0, 0.0, 0.5485008794130346, 0.0, 0.0, 0.0], [0.0, 967.0, 2.0, 0.0, 0.0, 0.0, 0.0, 0.0, 0.0, 0.0], [0.0, 968.0, 1.0, 0.0, 0.0, 0.0, 0.76281439199464118, 0.0, 0.0, 0.0], [0.0, 964.46040544463494, 6.0, 0.0, 0.0, 0.0, 0.46040544463495675, 0.0, 0.0, 0.0], [0.0, 965.10073526057261, 4.8656863192365263, 0.0, 0.0, 0.0, 0.10073526057260532, 0.0, 0.0, 0.0], [0.0, 967.40666081472727, 1.7911189136969967, 0.0, 0.0, 0.0, 2.4066608147272528, 0.0, 0.0, 0.0], [0.0, 965.74594129196942, 3.2540587080306396, 0.0, 0.0, 0.0, 0.58198043065645344, 0.0, 0.0, 0.0], [0.0, 966.98198136752012, 2.0180186324799316, 0.0, 0.0, 0.0, 2.9459441025602051, 0.0, 0.0, 0.0], [0.0, 962.78731601722495, 4.425367965550139, 0.0, 0.0, 0.0, 0.0, 0.0, 0.0, 0.0], [0.0, 964.13589446062417, 2.8641055393758568, 0.0, 0.0, 0.0, 1.1358944606241432, 0.0, 0.0, 0.0], [0.0, 961.5584081136069, 5.0, 0.0, 0.0, 0.0, 0.0, 0.0, 0.0, 0.0], [0.0, 960.0, 5.0, 0.0, 0.0, 0.0, 0.92494920160934047, 0.0, 0.0, 0.0], [0.0, 956.21754956966697, 7.8549669535553255, 0.0, 0.0, 0.0, 0.072516523222337093, 0.0, 0.0, 0.0], [0.0, 958.0, 6.0, 0.0, 0.0, 0.0, 0.0, 0.0, 0.0, 0.0], [0.0, 961.857591297309, 2.142408702691005, 0.0, 0.0, 0.0, 1.9287956486544975, 0.0, 0.0, 0.0], [0.0, 958.56932193156263, 6.0383475855466502, 0.0, 0.0, 0.0, 0.39233048289066996, 0.0, 0.0, 0.0], [0.0, 960.79365150557817, 2.4708989962812193, 0.0, 0.0, 0.0, 0.0, 0.0, 0.0, 0.0], [0.0, 963.87452088562316, 1.0, 0.0, 0.0, 0.0, 0.87452088562315466, 0.0, 0.0, 0.0], [0.0, 964.89634990569755, 1.1036500943024523, 0.0, 0.0, 0.0, 1.7926998113950954, 0.0, 0.0, 0.0], [0.0, 962.64810042835109, 3.7037991432979318, 0.0, 0.0, 0.0, 1.2962008567020682, 0.0, 0.0, 0.0], [0.0, 961.92008987529277, 3.0799101247072018, 0.0, 0.0, 0.0, 2.7602696258783941, 0.0, 0.0, 0.0], [0.0, 960.67814180206949, 4.2145721319536484, 0.0, 0.0, 0.0, 0.892713934023176, 0.0, 0.0, 0.0], [0.0, 961.59527901470165, 3.4047209852982991, 0.0, 0.0, 0.0, 1.1964592610262759, 0.0, 0.0, 0.0], [0.0, 963.61858212114134, 1.3814178788586045, 0.0, 0.0, 0.0, 2.7139365908560471, 0.0, 0.0, 0.0], [0.0, 962.96247271929656, 2.0375272807034643, 0.0, 0.0, 0.0, 0.65415757309884526, 0.0, 0.0, 0.0], [0.0, 961.46099807999849, 3.539001920001529, 0.0, 0.0, 0.0, 0.46099807999847092, 0.0, 0.0, 0.0], [0.0, 959.09988947643512, 5.8501657853472695, 0.0, 0.0, 0.0, 0.049944738217576966, 0.0, 0.0, 0.0], [0.0, 960.62809637459532, 3.3719036254046446, 0.0, 0.0, 0.0, 0.31404818729767775, 0.0, 0.0, 0.0], [0.0, 961.0, 3.0, 0.0, 0.0, 0.0, 0.0, 0.0, 0.0, 0.0], [0.0, 961.42228375008392, 3.0, 0.0, 0.0, 0.0, 0.57771624991602533, 0.0, 0.0, 0.0], [0.0, 962.08471067078244, 2.0, 0.0, 0.0, 0.0, 0.084710670782405739, 0.0, 0.0, 0.0], [0.0, 961.1367732716534, 3.8632267283466426, 0.0, 0.0, 0.0, 0.0, 0.0, 0.0, 0.0], [0.0, 962.80979755269004, 1.3804048946198078, 0.0, 0.0, 0.0, 0.0, 0.0, 0.0, 0.0], [0.0, 962.02716222617585, 2.9728377738241734, 0.0, 0.0, 0.0, 0.013581113087913385, 0.0, 0.0, 0.0], [0.0, 964.82332067620018, 2.0, 0.0, 0.0, 0.0, 0.82332067620020688, 0.0, 0.0, 0.0], [0.0, 965.15532200340851, 2.267016994887241, 0.0, 0.0, 0.0, 0.0, 0.0, 0.0, 0.0], [0.0, 968.0, 2.0, 0.0, 0.0, 0.0, 0.0, 0.0, 0.0, 0.0], [0.0, 967.33557839181003, 2.6644216081899352, 0.0, 0.0, 0.0, 0.58389459795251619, 0.0, 0.0, 0.0], [0.0, 967.50106186695382, 4.0, 0.0, 0.0, 0.0, 0.0, 0.0, 0.0, 0.0], [0.0, 968.82809022830759, 3.1146065144615926, 0.0, 0.0, 0.0, 1.8853934855384074, 0.0, 0.0, 0.0], [0.0, 964.57859596215451, 9.4214040378455124, 0.0, 0.0, 0.0, 0.0, 0.0, 0.0, 0.0], [0.0, 968.95707257583331, 4.3834153281945225, 0.0, 0.0, 0.0, 1.3190241919444223, 0.0, 0.0, 0.0], [0.0, 968.8951223289713, 4.0, 0.0, 0.0, 0.0, 0.0, 0.0, 0.0, 0.0], [0.0, 967.54662058081351, 2.4533794191865193, 0.0, 0.0, 0.0, 0.0, 0.0, 0.0, 0.0], [0.0, 968.5823893173806, 1.4176106826193662, 0.0, 0.0, 0.0, 0.0, 0.0, 0.0, 0.0], [0.0, 968.89198447015974, 1.0, 0.0, 0.0, 0.0, 0.0, 0.0, 0.0, 0.0], [0.0, 968.0, 1.0, 0.0, 0.0, 0.0, 1.0224245813921711, 0.0, 0.0, 0.0], [0.0, 966.15838414520783, 3.0, 0.0, 0.0, 0.0, 0.31676829041557508, 0.0, 0.0, 0.0], [0.0, 965.88562994227868, 4.1143700577213211, 0.0, 0.0, 0.0, 1.3284449134180178, 0.0, 0.0, 0.0], [0.0, 967.19234900297408, 3.7114764955389492, 0.0, 0.0, 0.0, 0.0, 0.0, 0.0, 0.0], [0.0, 968.57016548120896, 1.6447517781865733, 0.0, 0.0, 0.0, 0.0, 0.0, 0.0, 0.0], [0.0, 966.0258409576187, 2.0, 0.0, 0.0, 0.0, 0.0, 0.0, 0.0, 0.0], [0.0, 966.71535257374126, 1.2846474262587946, 0.0, 0.0, 0.0, 0.71535257374120531, 0.0, 0.0, 0.0], [0.0, 965.10889641789186, 2.0, 0.0, 0.0, 0.0, 0.10889641789186121, 0.0, 0.0, 0.0], [0.0, 965.31169616492082, 2.6883038350791457, 0.0, 0.0, 0.0, 0.0, 0.0, 0.0, 0.0], [0.0, 965.48198951026018, 1.0, 0.0, 0.0, 0.0, 0.0, 0.0, 0.0, 0.0], [0.0, 965.0, 1.0, 0.0, 0.0, 0.0, 0.0, 0.0, 0.0, 0.0], [0.0, 965.0, 1.0, 0.0, 0.0, 0.0, 1.5946887252007196, 0.0, 0.0, 0.0], [0.0, 962.37143594137967, 2.9428460879305192, 0.0, 0.0, 0.0, 0.68571797068982698, 0.0, 0.0, 0.0], [0.0, 961.67044005514447, 3.3295599448555633, 0.0, 0.0, 0.0, 0.0, 0.0, 0.0, 0.0], [0.0, 962.0, 3.0, 0.0, 0.0, 0.0, 1.3007141653788439, 0.0, 0.0, 0.0], [0.0, 962.69669684242706, 3.2022021050486091, 0.0, 0.0, 0.0, 5.393393684854173, 0.0, 0.0, 0.0], [0.0, 960.06022411645938, 5.9397758835406229, 0.0, 0.0, 0.0, 1.545168087344533, 0.0, 0.0, 0.0], [0.0, 962.33099530658535, 3.6690046934145997, 0.0, 0.0, 0.0, 1.6654976532927002, 0.0, 0.0, 0.0], [0.0, 963.51530631760045, 4.0, 0.0, 0.0, 0.0, 0.5153063176004149, 0.0, 0.0, 0.0], [0.0, 964.0, 2.0, 0.0, 0.0, 0.0, 0.0, 0.0, 0.0, 0.0], [0.0, 965.0, 1.0, 0.0, 0.0, 0.0, 0.0, 0.0, 0.0, 0.0], [0.0, 964.0, 3.0, 0.0, 0.0, 0.0, 0.0, 0.0, 0.0, 0.0], [0.0, 964.87318142862478, 2.1268185713752548, 0.0, 0.0, 0.0, 0.0, 0.0, 0.0, 0.0], [0.0, 965.0, 2.0, 0.0, 0.0, 0.0, 0.45795733233615643, 0.0, 0.0, 0.0], [0.0, 965.09866054359725, 2.9506697282013805, 0.0, 0.0, 0.0, 0.14799081539585907, 0.0, 0.0, 0.0], [0.0, 963.95783361764506, 4.0421663823549512, 0.0, 0.0, 0.0, 0.95783361764504893, 0.0, 0.0, 0.0], [0.0, 967.0, 1.0, 0.0, 0.0, 0.0, 0.0, 0.0, 0.0, 0.0], [0.0, 967.0, 1.0, 0.0, 0.0, 0.0, 0.75639579444795724, 0.0, 0.0, 0.0], [0.0, 964.26668517745054, 3.7333148225495094, 0.0, 0.0, 0.0, 0.53337035490098095, 0.0, 0.0, 0.0], [0.0, 963.07700828064878, 4.2819944795674649, 0.0, 0.0, 0.0, 0.71800552043253496, 0.0, 0.0, 0.0], [0.0, 960.31335596485962, 7.6866440351403416, 0.0, 0.0, 0.0, 1.5667798242982911, 0.0, 0.0, 0.0], [0.0, 960.54607175506771, 7.6052376599097791, 0.0, 0.0, 0.0, 2.1217264625563885, 0.0, 0.0, 0.0], [0.0, 961.34405889318953, 7.3279705534052608, 0.0, 0.0, 0.0, 1.3440588931894777, 0.0, 0.0, 0.0], [0.0, 962.14271717960514, 4.7859242305922516, 0.0, 0.0, 0.0, 0.21407576940774845, 0.0, 0.0, 0.0], [0.0, 961.20911495355051, 4.7908850464495103, 0.0, 0.0, 0.0, 0.13940996903365988, 0.0, 0.0, 0.0], [0.0, 963.03359269933583, 3.4832036503320585, 0.0, 0.0, 0.0, 1.5503890490038241, 0.0, 0.0, 0.0], [0.0, 963.12883929100997, 4.2259672574917087, 0.0, 0.0, 0.0, 0.70961309700331654, 0.0, 0.0, 0.0], [0.0, 966.39651226525757, 1.5029064456187191, 0.0, 0.0, 0.0, 1.7988374217525123, 0.0, 0.0, 0.0], [0.0, 964.02750107955558, 5.9724989204444121, 0.0, 0.0, 0.0, 0.68500071970372511, 0.0, 0.0, 0.0], [0.0, 961.75212295291306, 8.0598463088587184, 0.0, 0.0, 0.0, 1.1281844293695387, 0.0, 0.0, 0.0], [0.0, 962.0, 7.0, 0.0, 0.0, 0.0, 0.0, 0.0, 0.0, 0.0], [0.0, 964.10926195159118, 4.2688856580905181, 0.0, 0.0, 0.0, 1.8655571709547407, 0.0, 0.0, 0.0], [0.0, 963.79788093334082, 4.2021190666591366, 0.0, 0.0, 0.0, 2.3936428000225911, 0.0, 0.0, 0.0], [0.0, 960.29816501822552, 6.7018349817745229, 0.0, 0.0, 0.0, 0.77889901093528602, 0.0, 0.0, 0.0], [0.0, 959.43754424630151, 7.5624557536985355, 0.0, 0.0, 0.0, 0.43754424630146438, 0.0, 0.0, 0.0], [0.0, 961.0, 6.0, 0.0, 0.0, 0.0, 0.16030351946860666, 0.0, 0.0, 0.0], [0.0, 959.2404261328669, 7.6794318228442027, 0.0, 0.0, 0.0, 0.0, 0.0, 0.0, 0.0], [0.0, 964.0, 2.0, 0.0, 0.0, 0.0, 0.0, 0.0, 0.0, 0.0], [0.0, 961.0, 5.0, 0.0, 0.0, 0.0, 0.0, 0.0, 0.0, 0.0], [0.0, 964.0, 5.0, 0.0, 0.0, 0.0, 0.5828056242941041, 0.0, 0.0, 0.0], [0.0, 964.09027664688779, 4.3645850296682509, 0.0, 0.0, 0.0, 1.6354149703317491, 0.0, 0.0, 0.0], [0.0, 961.18260641778284, 5.0, 0.0, 0.0, 0.0, 0.81739358221712188, 0.0, 0.0, 0.0], [0.0, 959.11252838853193, 6.7749432229361917, 0.0, 0.0, 0.0, 0.168792582797856, 0.0, 0.0, 0.0], [0.0, 955.93993095771714, 7.1201380845658235, 0.0, 0.0, 0.0, 1.879861915434176, 0.0, 0.0, 0.0], [0.0, 953.12377561622316, 8.8762243837768242, 0.0, 0.0, 0.0, 0.24755123244635185, 0.0, 0.0, 0.0], [0.0, 949.79638747876095, 13.101806260619506, 0.0, 0.0, 0.0, 0.89819373938049374, 0.0, 0.0, 0.0], [0.0, 950.745343244693, 14.0, 0.0, 0.0, 0.0, 1.4906864893859644, 0.0, 0.0, 0.0], [0.0, 952.68795116236208, 10.636868372693151, 0.0, 0.0, 0.0, 1.0127706974172208, 0.0, 0.0, 0.0], [0.0, 957.00311107824473, 4.9968889217553087, 0.0, 0.0, 0.0, 4.5046666173670351, 0.0, 0.0, 0.0], [0.0, 957.51265158162312, 5.3655113137826245, 0.0, 0.0, 0.0, 4.3908144770289574, 0.0, 0.0, 0.0], [0.0, 952.55701913807161, 10.44298086192844, 0.0, 0.0, 0.0, 1.1677643535536695, 0.0, 0.0, 0.0], [0.0, 958.24695895901471, 3.1913013012315607, 0.0, 0.0, 0.0, 3.9043493493842196, 0.0, 0.0, 0.0], [0.0, 954.98951211770907, 7.0104878822909367, 0.0, 0.0, 0.0, 2.9685363531271904, 0.0, 0.0, 0.0], [0.0, 953.21897629913781, 8.7810237008621712, 0.0, 0.0, 0.0, 0.14598419942521862, 0.0, 0.0, 0.0], [0.0, 954.3442962632472, 5.9835556051292418, 0.0, 0.0, 0.0, 2.0164443948707587, 0.0, 0.0, 0.0], [0.0, 954.27032459398515, 4.9729005413532024, 0.0, 0.0, 0.0, 2.270324593985098, 0.0, 0.0, 0.0], [0.0, 954.84819873886113, 5.1518012611388899, 0.0, 0.0, 0.0, 6.7855899108888797, 0.0, 0.0, 0.0], [0.0, 947.85843868950735, 13.62740517944334, 0.0, 0.0, 0.0, 2.9150632137044399, 0.0, 0.0, 0.0], [0.0, 953.79968486169798, 7.4447945981133881, 0.0, 0.0, 0.0, 2.2665616205659838, 0.0, 0.0, 0.0], [0.0, 954.0, 5.0, 0.0, 0.0, 0.0, 0.0, 0.0, 0.0, 0.0], [0.0, 954.0, 4.0, 0.0, 0.0, 0.0, 0.92109242561475779, 0.0, 0.0, 0.0], [0.0, 948.0, 8.0, 0.0, 0.0, 0.0, 0.68483558150976309, 0.0, 0.0, 0.0], [0.0, 950.96736440548796, 6.0326355945120476, 0.0, 0.0, 0.0, 1.3224548018293174, 0.0, 0.0, 0.0], [0.0, 951.0, 5.7948227623094075, 0.0, 0.0, 0.0, 1.2310634261435567, 0.0, 0.0, 0.0], [0.0, 944.0, 13.0, 0.0, 0.0, 0.0, 1.7261830039907831, 0.0, 0.0, 0.0], [0.0, 942.78091625640263, 12.088931034196984, 0.0, 0.0, 0.0, 0.13015270940043097, 0.0, 0.0, 0.0], [0.0, 948.83658879607299, 5.1634112039270059, 0.0, 0.0, 0.0, 0.83658879607299386, 0.0, 0.0, 0.0], [0.0, 946.0, 7.0, 0.0, 0.0, 0.0, 1.2870014269133889, 0.0, 0.0, 0.0], [0.0, 943.7301604733359, 7.2698395266641125, 0.0, 0.0, 0.0, 2.7976203550019156, 0.0, 0.0, 0.0], [0.0, 945.42353546432366, 5.0058752916224503, 0.0, 0.0, 0.0, 0.0, 0.0, 0.0, 0.0], [0.0, 948.0, 1.6012019206665618, 0.0, 0.0, 0.0, 1.1963942380003147, 0.0, 0.0, 0.0], [0.0, 945.0, 4.0, 0.0, 0.0, 0.0, 2.8021647859696541, 0.0, 0.0, 0.0], [0.0, 942.3284554835833, 7.6715445164166685, 0.0, 0.0, 0.0, 0.32845548358333193, 0.0, 0.0, 0.0], [0.0, 947.6933656172157, 3.3066343827842588, 0.0, 0.0, 0.0, 0.0, 0.0, 0.0, 0.0], [0.0, 946.0, 4.0, 0.0, 0.0, 0.0, 0.80572372452597407, 0.0, 0.0, 0.0], [0.0, 948.40354665423558, 2.5964533457644619, 0.0, 0.0, 0.0, 0.40354665423553826, 0.0, 0.0, 0.0], [0.0, 948.08945184511492, 3.7316444646553673, 0.0, 0.0, 0.0, 0.17890369022975522, 0.0, 0.0, 0.0], [0.0, 948.75536884678399, 1.7338934596480229, 0.0, 0.0, 0.0, 1.5107376935679848, 0.0, 0.0, 0.0], [0.0, 944.0, 4.8334778893362333, 0.0, 0.0, 0.0, 0.16652211066376649, 0.0, 0.0, 0.0], [0.0, 946.55013911860487, 3.7249304406975385, 0.0, 0.0, 0.0, 0.0, 0.0, 0.0, 0.0], [0.0, 948.5038361761716, 1.4961638238283648, 0.0, 0.0, 0.0, 0.50383617617163512, 0.0, 0.0, 0.0], [0.0, 946.0, 4.0, 0.0, 0.0, 0.0, 2.2738974957846652, 0.0, 0.0, 0.0], [0.0, 947.24215279322357, 5.7578472067763888, 0.0, 0.0, 0.0, 0.4968611172894446, 0.0, 0.0, 0.0], [0.0, 951.17371992918947, 3.4131400354052781, 0.0, 0.0, 0.0, 1.7605798937841661, 0.0, 0.0, 0.0], [0.0, 950.94345835334707, 3.5706770583161598, 0.0, 0.0, 0.0, 0.97172917667353609, 0.0, 0.0, 0.0], [0.0, 951.43145329983031, 3.0, 0.0, 0.0, 0.0, 0.86290659966058836, 0.0, 0.0, 0.0], [0.0, 952.15549029287376, 2.8445097071262624, 0.0, 0.0, 0.0, 0.71849676429124587, 0.0, 0.0, 0.0], [0.0, 953.0, 2.0, 0.0, 0.0, 0.0, 0.0, 0.0, 0.0, 0.0], [0.0, 954.0, 2.0, 0.0, 0.0, 0.0, 0.55189575413045644, 0.0, 0.0, 0.0], [0.0, 955.0, 1.0, 0.0, 0.0, 0.0, 0.0, 0.0, 0.0, 0.0], [0.0, 954.0, 1.0, 0.0, 0.0, 0.0, -1.0, 0.0, 0.0, 0.0], [0.0, 954.0, 1.0, 0.0, 0.0, 0.0, -1.0, 0.0, 0.0, 0.0], [0.0, 954.0, 1.0, 0.0, 0.0, 0.0, -1.0, 0.0, 0.0, 0.0], [0.0, 954.0, 1.0, 0.0, 0.0, 0.0, -1.0, 0.0, 0.0, 0.0], [0.0, 954.0, 1.0, 0.0, 0.0, 0.0, -1.0, 0.0, 0.0, 0.0], [0.0, 954.0, 1.0, 0.0, 0.0, 0.0, -1.0, 0.0, 0.0, 0.0], [0.0, 954.0, 1.0, 0.0, 0.0, 0.0, -1.0, 0.0, 0.0, 0.0], [0.0, 954.0, 1.0, 0.0, 0.0, 0.0, -1.0, 0.0, 0.0, 0.0], [0.0, 954.0, 1.0, 0.0, 0.0, 0.0, -1.0, 0.0, 0.0, 0.0], [0.0, 954.0, 1.0, 0.0, 0.0, 0.0, -1.0, 0.0, 0.0, 0.0], [0.0, 954.0, 1.0, 0.0, 0.0, 0.0, -1.0, 0.0, 0.0, 0.0], [0.0, 954.0, 1.0, 0.0, 0.0, 0.0, -1.0, 0.0, 0.0, 0.0], [0.0, 954.0, 1.0, 0.0, 0.0, 0.0, -1.0, 0.0, 0.0, 0.0], [0.0, 954.0, 1.0, 0.0, 0.0, 0.0, -1.0, 0.0, 0.0, 0.0], [0.0, 954.0, 1.0, 0.0, 0.0, 0.0, -1.0, 0.0, 0.0, 0.0], [0.0, 954.0, 1.0, 0.0, 0.0, 0.0, -1.0, 0.0, 0.0, 0.0], [0.0, 954.0, 1.0, 0.0, 0.0, 0.0, -1.0, 0.0, 0.0, 0.0], [0.0, 954.0, 1.0, 0.0, 0.0, 0.0, -1.0, 0.0, 0.0, 0.0], [0.0, 954.0, 1.0, 0.0, 0.0, 0.0, -1.0, 0.0, 0.0, 0.0], [0.0, 954.0, 1.0, 0.0, 0.0, 0.0, -1.0, 0.0, 0.0, 0.0], [0.0, 954.0, 1.0, 0.0, 0.0, 0.0, -1.0, 0.0, 0.0, 0.0], [0.0, 954.0, 1.0, 0.0, 0.0, 0.0, -1.0, 0.0, 0.0, 0.0], [0.0, 954.0, 1.0, 0.0, 0.0, 0.0, -1.0, 0.0, 0.0, 0.0], [0.0, 954.0, 1.0, 0.0, 0.0, 0.0, -1.0, 0.0, 0.0, 0.0], [0.0, 954.0, 1.0, 0.0, 0.0, 0.0, -1.0, 0.0, 0.0, 0.0], [0.0, 954.0, 1.0, 0.0, 0.0, 0.0, -1.0, 0.0, 0.0, 0.0], [0.0, 954.0, 1.0, 0.0, 0.0, 0.0, -1.0, 0.0, 0.0, 0.0], [0.0, 954.0, 1.0, 0.0, 0.0, 0.0, -1.0, 0.0, 0.0, 0.0], [0.0, 954.0, 1.0, 0.0, 0.0, 0.0, -1.0, 0.0, 0.0, 0.0], [0.0, 954.0, 1.0, 0.0, 0.0, 0.0, -1.0, 0.0, 0.0, 0.0], [0.0, 954.0, 1.0, 0.0, 0.0, 0.0, -1.0, 0.0, 0.0, 0.0], [0.0, 954.0, 1.0, 0.0, 0.0, 0.0, -1.0, 0.0, 0.0, 0.0], [0.0, 954.0, 1.0, 0.0, 0.0, 0.0, -1.0, 0.0, 0.0, 0.0], [0.0, 954.0, 1.0, 0.0, 0.0, 0.0, -1.0, 0.0, 0.0, 0.0], [0.0, 954.0, 1.0, 0.0, 0.0, 0.0, -1.0, 0.0, 0.0, 0.0], [0.0, 954.0, 1.0, 0.0, 0.0, 0.0, -1.0, 0.0, 0.0, 0.0], [0.0, 954.0, 1.0, 0.0, 0.0, 0.0, -1.0, 0.0, 0.0, 0.0], [0.0, 954.0, 1.0, 0.0, 0.0, 0.0, -1.0, 0.0, 0.0, 0.0], [0.0, 954.0, 1.0, 0.0, 0.0, 0.0, -1.0, 0.0, 0.0, 0.0], [0.0, 954.0, 1.0, 0.0, 0.0, 0.0, -1.0, 0.0, 0.0, 0.0], [0.0, 954.0, 1.0, 0.0, 0.0, 0.0, -1.0, 0.0, 0.0, 0.0], [0.0, 954.0, 1.0, 0.0, 0.0, 0.0, -1.0, 0.0, 0.0, 0.0], [0.0, 954.0, 1.0, 0.0, 0.0, 0.0, -1.0, 0.0, 0.0, 0.0], [0.0, 954.0, 1.0, 0.0, 0.0, 0.0, -1.0, 0.0, 0.0, 0.0], [0.0, 954.0, 1.0, 0.0, 0.0, 0.0, -1.0, 0.0, 0.0, 0.0], [0.0, 954.0, 1.0, 0.0, 0.0, 0.0, -1.0, 0.0, 0.0, 0.0], [0.0, 954.0, 1.0, 0.0, 0.0, 0.0, -1.0, 0.0, 0.0, 0.0], [0.0, 954.0, 1.0, 0.0, 0.0, 0.0, -1.0, 0.0, 0.0, 0.0], [0.0, 954.0, 1.0, 0.0, 0.0, 0.0, -1.0, 0.0, 0.0, 0.0], [0.0, 954.0, 1.0, 0.0, 0.0, 0.0, -1.0, 0.0, 0.0, 0.0], [0.0, 954.0, 1.0, 0.0, 0.0, 0.0, -1.0, 0.0, 0.0, 0.0], [0.0, 954.0, 1.0, 0.0, 0.0, 0.0, -1.0, 0.0, 0.0, 0.0], [0.0, 954.0, 1.0, 0.0, 0.0, 0.0, -1.0, 0.0, 0.0, 0.0], [0.0, 954.0, 1.0, 0.0, 0.0, 0.0, -1.0, 0.0, 0.0, 0.0], [0.0, 954.0, 1.0, 0.0, 0.0, 0.0, -1.0, 0.0, 0.0, 0.0], [0.0, 954.0, 1.0, 0.0, 0.0, 0.0, -1.0, 0.0, 0.0, 0.0], [0.0, 954.0, 1.0, 0.0, 0.0, 0.0, -1.0, 0.0, 0.0, 0.0], [0.0, 954.0, 1.0, 0.0, 0.0, 0.0, -1.0, 0.0, 0.0, 0.0], [0.0, 954.0, 1.0, 0.0, 0.0, 0.0, -1.0, 0.0, 0.0, 0.0], [0.0, 954.0, 1.0, 0.0, 0.0, 0.0, -1.0, 0.0, 0.0, 0.0], [0.0, 954.0, 1.0, 0.0, 0.0, 0.0, -1.0, 0.0, 0.0, 0.0], [0.0, 954.0, 1.0, 0.0, 0.0, 0.0, -1.0, 0.0, 0.0, 0.0], [0.0, 954.0, 1.0, 0.0, 0.0, 0.0, -1.0, 0.0, 0.0, 0.0], [0.0, 954.0, 1.0, 0.0, 0.0, 0.0, -1.0, 0.0, 0.0, 0.0], [0.0, 954.0, 1.0, 0.0, 0.0, 0.0, -1.0, 0.0, 0.0, 0.0], [0.0, 954.0, 1.0, 0.0, 0.0, 0.0, -1.0, 0.0, 0.0, 0.0], [0.0, 954.0, 1.0, 0.0, 0.0, 0.0, -1.0, 0.0, 0.0, 0.0], [0.0, 954.0, 1.0, 0.0, 0.0, 0.0, -1.0, 0.0, 0.0, 0.0], [0.0, 954.0, 1.0, 0.0, 0.0, 0.0, -1.0, 0.0, 0.0, 0.0], [0.0, 954.0, 1.0, 0.0, 0.0, 0.0, -1.0, 0.0, 0.0, 0.0], [0.0, 954.0, 1.0, 0.0, 0.0, 0.0, -1.0, 0.0, 0.0, 0.0], [0.0, 954.0, 1.0, 0.0, 0.0, 0.0, -1.0, 0.0, 0.0, 0.0], [0.0, 954.0, 1.0, 0.0, 0.0, 0.0, -1.0, 0.0, 0.0, 0.0], [0.0, 954.0, 1.0, 0.0, 0.0, 0.0, -1.0, 0.0, 0.0, 0.0], [0.0, 954.0, 1.0, 0.0, 0.0, 0.0, -1.0, 0.0, 0.0, 0.0], [0.0, 954.0, 1.0, 0.0, 0.0, 0.0, -1.0, 0.0, 0.0, 0.0], [0.0, 954.0, 1.0, 0.0, 0.0, 0.0, -1.0, 0.0, 0.0, 0.0], [0.0, 954.0, 1.0, 0.0, 0.0, 0.0, -1.0, 0.0, 0.0, 0.0], [0.0, 954.0, 1.0, 0.0, 0.0, 0.0, -1.0, 0.0, 0.0, 0.0], [0.0, 954.0, 1.0, 0.0, 0.0, 0.0, -1.0, 0.0, 0.0, 0.0], [0.0, 954.0, 1.0, 0.0, 0.0, 0.0, -1.0, 0.0, 0.0, 0.0], [0.0, 954.0, 1.0, 0.0, 0.0, 0.0, -1.0, 0.0, 0.0, 0.0], [0.0, 954.0, 1.0, 0.0, 0.0, 0.0, -1.0, 0.0, 0.0, 0.0], [0.0, 954.0, 1.0, 0.0, 0.0, 0.0, -1.0, 0.0, 0.0, 0.0], [0.0, 954.0, 1.0, 0.0, 0.0, 0.0, -1.0, 0.0, 0.0, 0.0], [0.0, 954.0, 1.0, 0.0, 0.0, 0.0, -1.0, 0.0, 0.0, 0.0], [0.0, 954.0, 1.0, 0.0, 0.0, 0.0, -1.0, 0.0, 0.0, 0.0], [0.0, 954.0, 1.0, 0.0, 0.0, 0.0, -1.0, 0.0, 0.0, 0.0], [0.0, 954.0, 1.0, 0.0, 0.0, 0.0, -1.0, 0.0, 0.0, 0.0], [0.0, 954.0, 1.0, 0.0, 0.0, 0.0, -1.0, 0.0, 0.0, 0.0], [0.0, 954.0, 1.0, 0.0, 0.0, 0.0, -1.0, 0.0, 0.0, 0.0], [0.0, 954.0, 1.0, 0.0, 0.0, 0.0, -1.0, 0.0, 0.0, 0.0], [0.0, 954.0, 1.0, 0.0, 0.0, 0.0, -1.0, 0.0, 0.0, 0.0], [0.0, 954.0, 1.0, 0.0, 0.0, 0.0, -1.0, 0.0, 0.0, 0.0], [0.0, 954.0, 1.0, 0.0, 0.0, 0.0, -1.0, 0.0, 0.0, 0.0], [0.0, 954.0, 1.0, 0.0, 0.0, 0.0, -1.0, 0.0, 0.0, 0.0], [0.0, 954.0, 1.0, 0.0, 0.0, 0.0, -1.0, 0.0, 0.0, 0.0], [0.0, 954.0, 1.0, 0.0, 0.0, 0.0, -1.0, 0.0, 0.0, 0.0], [0.0, 954.0, 1.0, 0.0, 0.0, 0.0, -1.0, 0.0, 0.0, 0.0], [0.0, 954.0, 1.0, 0.0, 0.0, 0.0, -1.0, 0.0, 0.0, 0.0], [0.0, 954.0, 1.0, 0.0, 0.0, 0.0, -1.0, 0.0, 0.0, 0.0], [0.0, 954.0, 1.0, 0.0, 0.0, 0.0, -1.0, 0.0, 0.0, 0.0], [0.0, 954.0, 1.0, 0.0, 0.0, 0.0, -1.0, 0.0, 0.0, 0.0], [0.0, 954.0, 1.0, 0.0, 0.0, 0.0, -1.0, 0.0, 0.0, 0.0], [0.0, 954.0, 1.0, 0.0, 0.0, 0.0, -1.0, 0.0, 0.0, 0.0], [0.0, 954.0, 1.0, 0.0, 0.0, 0.0, -1.0, 0.0, 0.0, 0.0], [0.0, 954.0, 1.0, 0.0, 0.0, 0.0, -1.0, 0.0, 0.0, 0.0]]
HCV_Pars,0.847549,0.147994,1.338629,0.047398,0.496873,0.455117,R2,2.09111111111||[[0.0, 1000.0, 0.0, 0.0, 0.0, 0.0, 1.0, 0.0, 0.0, 0.0], [0.0, 999.0, 1.0, 0.0, 0.0, 0.0, 0.0, 0.0, 0.0, 0.0], [0.0, 998.55135699366554, 1.0, 0.0, 0.0, 0.0, 0.0, 0.0, 0.0, 0.0], [0.0, 997.0, 1.0, 0.0, 0.0, 0.0, 0.0, 0.0, 0.0, 0.0], [0.0, 995.0, 1.0, 0.0, 0.0, 0.0, 0.0, 0.0, 0.0, 0.0], [0.0, 995.43466213444628, 1.0, 0.0, 0.0, 0.0, 0.43466213444631879, 0.0, 0.0, 0.0], [0.0, 995.0, 2.0, 0.0, 0.0, 0.0, 0.0, 0.0, 0.0, 0.0], [0.0, 994.6690632036117, 1.6690632036117554, 0.0, 0.0, 0.0, 0.0, 0.0, 0.0, 0.0], [0.0, 994.29553366856805, 1.2955336685680265, 0.0, 0.0, 0.0, 0.0, 0.0, 0.0, 0.0], [0.0, 993.10707293790642, 1.0, 0.0, 0.0, 0.0, 0.0, 0.0, 0.0, 0.0], [0.0, 992.0, 2.0, 0.0, 0.0, 0.0, 0.0, 0.0, 0.0, 0.0], [0.0, 990.50531078298047, 2.0, 0.0, 0.0, 0.0, 0.0, 0.0, 0.0, 0.0], [0.0, 990.0, 2.0, 0.0, 0.0, 0.0, 0.0, 0.0, 0.0, 0.0], [0.0, 989.0, 2.0, 0.0, 0.0, 0.0, 0.0, 0.0, 0.0, 0.0], [0.0, 987.15927574244847, 4.0, 0.0, 0.0, 0.0, 0.0, 0.0, 0.0, 0.0], [0.0, 988.22742998283945, 3.3862850085802645, 0.0, 0.0, 0.0, 0.0, 0.0, 0.0, 0.0], [0.0, 989.0, 2.1025006035594442, 0.0, 0.0, 0.0, 0.89749939644055587, 0.0, 0.0, 0.0], [0.0, 989.90864431361979, 2.0913556863802372, 0.0, 0.0, 0.0, 0.0, 0.0, 0.0, 0.0], [0.0, 988.0, 4.0, 0.0, 0.0, 0.0, 0.0, 0.0, 0.0, 0.0], [0.0, 988.0, 4.3472104776178364, 0.0, 0.0, 0.0, 0.0, 0.0, 0.0, 0.0], [0.0, 987.00245305141846, 5.9950938971630423, 0.0, 0.0, 0.0, 0.0, 0.0, 0.0, 0.0], [0.0, 987.86570775673192, 4.268584486536092, 0.0, 0.0, 0.0, 0.0, 0.0, 0.0, 0.0], [0.0, 986.5430041221997, 5.0, 0.0, 0.0, 0.0, 0.0, 0.0, 0.0, 0.0], [0.0, 987.37739036280766, 3.1634795162564813, 0.0, 0.0, 0.0, 0.45913012093587968, 0.0, 0.0, 0.0], [0.0, 988.0, 2.0, 0.0, 0.0, 0.0, 0.0, 0.0, 0.0, 0.0], [0.0, 988.0, 2.0, 0.0, 0.0, 0.0, 0.0, 0.0, 0.0, 0.0], [0.0, 990.0, 1.0, 0.0, 0.0, 0.0, 0.0, 0.0, 0.0, 0.0], [0.0, 990.63352104847445, 1.0, 0.0, 0.0, 0.0, 0.63352104847440538, 0.0, 0.0, 0.0], [0.0, 989.67801274540739, 2.0, 0.0, 0.0, 0.0, 0.0, 0.0, 0.0, 0.0], [0.0, 988.17021687938836, 2.8297831206116619, 0.0, 0.0, 0.0, 0.0, 0.0, 0.0, 0.0], [0.0, 989.0, 2.0, 0.0, 0.0, 0.0, 1.6071578209517896, 0.0, 0.0, 0.0], [0.0, 986.21193230848121, 5.0, 0.0, 0.0, 0.0, 0.0, 0.0, 0.0, 0.0], [0.0, 986.0, 5.0, 0.0, 0.0, 0.0, 0.0, 0.0, 0.0, 0.0], [0.0, 989.49593035814382, 2.0, 0.0, 0.0, 0.0, 0.50406964185617731, 0.0, 0.0, 0.0], [0.0, 988.67548381594031, 2.3245161840596946, 0.0, 0.0, 0.0, 0.0, 0.0, 0.0, 0.0], [0.0, 988.0, 2.0, 0.0, 0.0, 0.0, 0.0, 0.0, 0.0, 0.0], [0.0, 985.0, 4.0, 0.0, 0.0, 0.0, 0.0, 0.0, 0.0, 0.0], [0.0, 983.0, 5.0, 0.0, 0.0, 0.0, 0.0, 0.0, 0.0, 0.0], [0.0, 981.0, 5.7775318496916626, 0.0, 0.0, 0.0, 0.22246815030833711, 0.0, 0.0, 0.0], [0.0, 980.56911705356993, 5.4308829464300814, 0.0, 0.0, 0.0, 0.56911705356991893, 0.0, 0.0, 0.0], [0.0, 978.1422643971141, 7.0, 0.0, 0.0, 0.0, 0.14226439711407968, 0.0, 0.0, 0.0], [0.0, 978.91158983159585, 7.0884101684041152, 0.0, 0.0, 0.0, 0.45579491579794223, 0.0, 0.0, 0.0], [0.0, 978.0, 7.0, 0.0, 0.0, 0.0, 0.0, 0.0, 0.0, 0.0], [0.0, 979.8717283429944, 5.5043622093407389, 0.0, 0.0, 0.0, 0.0, 0.0, 0.0, 0.0], [0.0, 982.0, 4.7343979383422985, 0.0, 0.0, 0.0, 0.26560206165770184, 0.0, 0.0, 0.0], [0.0, 979.38010590414819, 6.0, 0.0, 0.0, 0.0, 0.0, 0.0, 0.0, 0.0], [0.0, 979.0, 8.0, 0.0, 0.0, 0.0, 0.0, 0.0, 0.0, 0.0], [0.0, 980.0, 7.3809377686156123, 0.0, 0.0, 0.0, 0.0, 0.0, 0.0, 0.0], [0.0, 981.0, 4.8304281576999992, 0.0, 0.0, 0.0, 0.0, 0.0, 0.0, 0.0], [0.0, 982.05800453760276, 1.9419954623972691, 0.0, 0.0, 0.0, 0.058004537602730839, 0.0, 0.0, 0.0], [0.0, 982.0, 2.0, 0.0, 0.0, 0.0, 0.1865639386804496, 0.0, 0.0, 0.0], [0.0, 982.02183181615828, 2.4890840919208825, 0.0, 0.0, 0.0, 1.0218318161582349, 0.0, 0.0, 0.0], [0.0, 981.0, 4.0, 0.0, 0.0, 0.0, 0.94767363517066161, 0.0, 0.0, 0.0], [0.0, 980.0, 4.4627812193697736, 0.0, 0.0, 0.0, 1.0744375612604531, 0.0, 0.0, 0.0], [0.0, 977.00880546992221, 6.9911945300777836, 0.0, 0.0, 0.0, 0.026416409766648861, 0.0, 0.0, 0.0], [0.0, 977.62013550095912, 6.3798644990408517, 0.0, 0.0, 0.0, 1.8604065028774444, 0.0, 0.0, 0.0], [0.0, 974.04438842035881, 8.9556115796411433, 0.0, 0.0, 0.0, 0.044388420358856519, 0.0, 0.0, 0.0], [0.0, 976.04916157002731, 7.9508384299727153, 0.0, 0.0, 0.0, 0.52458078501364236, 0.0, 0.0, 0.0], [0.0, 977.94488064443897, 7.0, 0.0, 0.0, 0.0, 0.0, 0.0, 0.0, 0.0], [0.0, 979.24838231405806, 6.2548530578257067, 0.0, 0.0, 0.0, 0.24838231405809774, 0.0, 0.0, 0.0], [0.0, 979.0, 5.0, 0.0, 0.0, 0.0, 0.0, 0.0, 0.0, 0.0], [0.0, 977.0, 6.0, 0.0, 0.0, 0.0, 0.39465682215407871, 0.0, 0.0, 0.0], [0.0, 975.0, 8.3681709145724472, 0.0, 0.0, 0.0, 0.0, 0.0, 0.0, 0.0], [0.0, 974.291812325102, 7.0622815123469982, 0.0, 0.0, 0.0, 0.64590616255100075, 0.0, 0.0, 0.0], [0.0, 976.87857741433595, 3.1821338784961437, 0.0, 0.0, 0.0, 1.9392887071679523, 0.0, 0.0, 0.0], [0.0, 973.39366069139487, 6.0, 0.0, 0.0, 0.0, 0.0, 0.0, 0.0, 0.0], [0.0, 972.0, 4.8324659597646367, 0.0, 0.0, 0.0, 0.16753404023536345, 0.0, 0.0, 0.0], [0.0, 971.29132794007887, 5.0, 0.0, 0.0, 0.0, 0.0, 0.0, 0.0, 0.0], [0.0, 974.66909292387788, 4.0, 0.0, 0.0, 0.0, 0.0, 0.0, 0.0, 0.0], [0.0, 975.0, 4.0, 0.0, 0.0, 0.0, 0.45955760956072256, 0.0, 0.0, 0.0], [0.0, 976.0, 3.1511372927722174, 0.0, 0.0, 0.0, 0.0, 0.0, 0.0, 0.0], [0.0, 974.0, 4.0, 0.0, 0.0, 0.0, 0.45911329560504688, 0.0, 0.0, 0.0], [0.0, 974.23023243059311, 3.7697675694068784, 0.0, 0.0, 0.0, 0.23023243059312154, 0.0, 0.0, 0.0], [0.0, 976.70793445585798, 1.2920655441420705, 0.0, 0.0, 0.0, 2.7079344558579295, 0.0, 0.0, 0.0], [0.0, 974.90349026930676, 4.0, 0.0, 0.0, 0.0, 2.710470807920113, 0.0, 0.0, 0.0], [0.0, 972.96078779671211, 7.0, 0.0, 0.0, 0.0, 0.96078779671208736, 0.0, 0.0, 0.0], [0.0, 972.96779355251044, 5.7096085966527985, 0.0, 0.0, 0.0, 0.96779355251040133, 0.0, 0.0, 0.0], [0.0, 973.12174654583521, 5.9391267270823773, 0.0, 0.0, 0.0, 0.060873272917622345, 0.0, 0.0, 0.0], [0.0, 974.75561533138318, 6.0, 0.0, 0.0, 0.0, 2.2668459941496244, 0.0, 0.0, 0.0], [0.0, 969.55002414851037, 13.0, 0.0, 0.0, 0.0, 0.55002414851034109, 0.0, 0.0, 0.0], [0.0, 968.09243768483054, 14.907562315169496, 0.0, 0.0, 0.0, 0.27731305449150945, 0.0, 0.0, 0.0], [0.0, 968.0, 14.959124077134401, 0.0, 0.0, 0.0, 0.081751845731198244, 0.0, 0.0, 0.0], [0.0, 963.13428533199749, 14.402855995992546, 0.0, 0.0, 0.0, 0.0, 0.0, 0.0, 0.0], [0.0, 964.32399081409392, 12.676009185906057, 0.0, 0.0, 0.0, 0.0, 0.0, 0.0, 0.0], [0.0, 968.0, 8.0, 0.0, 0.0, 0.0, 0.0, 0.0, 0.0, 0.0], [0.0, 971.72485888987433, 5.2751411101256522, 0.0, 0.0, 0.0, 0.0, 0.0, 0.0, 0.0], [0.0, 974.0, 3.0, 0.0, 0.0, 0.0, 0.0, 0.0, 0.0, 0.0], [0.0, 974.0, 2.0, 0.0, 0.0, 0.0, 0.0, 0.0, 0.0, 0.0], [0.0, 972.0, 3.0, 0.0, 0.0, 0.0, 0.31476083154539181, 0.0, 0.0, 0.0], [0.0, 969.0, 5.0, 0.0, 0.0, 0.0, 2.405247487119198, 0.0, 0.0, 0.0], [0.0, 964.4280681685907, 9.5719318314093584, 0.0, 0.0, 0.0, 1.7122726743625696, 0.0, 0.0, 0.0], [0.0, 960.58504583976162, 13.0, 0.0, 0.0, 0.0, 0.41495416023843434, 0.0, 0.0, 0.0], [0.0, 960.06946178227645, 11.861076435447194, 0.0, 0.0, 0.0, 3.2083853468292087, 0.0, 0.0, 0.53473089113820149], [0.0, 952.0, 17.982276025778102, 0.0, 0.0, 1.0, 0.0, 0.0, 0.0, 0.0], [0.0, 952.1260434873351, 15.873956512664931, 0.0, 0.0, 1.0, 0.12604348733506887, 0.0, 0.0, 0.0], [0.0, 952.0, 13.362217404396318, 0.0, 0.0, 1.0, 0.5275565191207362, 0.0, 0.0, 0.0], [0.0, 955.0, 5.6886742898373397, 0.0, 0.0, 1.0, 0.0, 0.0, 0.0, 0.0], [0.0, 956.40895573346893, 4.5910442665310338, 0.0, 0.0, 0.0, 0.0, 0.0, 0.0, 0.0], [0.0, 957.20594173801487, 4.7940582619851257, 0.0, 0.0, 0.0, 0.20594173801487436, 0.0, 0.0, 0.0], [0.0, 955.96255150611603, 7.0, 0.0, 0.0, 0.0, 0.0, 0.0, 0.0, 0.0], [0.0, 954.41228482230986, 7.1754303553803558, 0.0, 0.0, 0.0, 0.41228482230982194, 0.0, 0.0, 0.0], [0.0, 952.4421849940835, 7.5578150059164431, 0.0, 0.0, 0.0, 0.66327749112533507, 0.0, 0.0, 0.0], [0.0, 951.11585668511032, 8.768286629779416, 0.0, 0.0, 0.0, 0.0, 0.0, 0.0, 0.0], [0.0, 951.81038537277675, 7.3792292544465283, 0.0, 0.0, 0.0, 0.0, 0.0, 0.0, 0.0], [0.0, 950.12356142957901, 8.8764385704210369, 0.0, 0.0, 0.0, 0.061780714789481883, 0.0, 0.0, 0.0], [0.0, 952.10639689998902, 8.7340077500275193, 0.0, 0.0, 0.0, 0.58518294993945585, 0.0, 0.0, 0.0], [0.0, 953.06848715105207, 6.3287821223699128, 0.0, 0.0, 0.0, 5.8766793307861915, 0.0, 0.0, 0.0], [0.0, 943.10896089432424, 15.0, 0.0, 0.0, 0.0, 0.0, 0.0, 0.0, 0.0], [0.0, 943.0, 15.0, 0.0, 0.0, 0.0, 0.75389241334500556, 0.0, 0.0, 0.0], [0.0, 943.78137977387769, 16.0, 0.0, 0.0, 0.0, 0.0, 0.0, 0.0, 0.0], [0.0, 945.38196377514078, 12.618036224859241, 0.0, 0.0, 0.0, 0.19098188757037987, 0.0, 0.0, 0.0], [0.0, 945.34378841005105, 11.968634769846707, 0.0, 0.0, 0.0, 0.34378841005109784, 0.0, 0.0, 0.0], [0.0, 946.0, 10.0, 0.0, 0.0, 0.0, 0.0, 0.0, 0.0, 0.0], [0.0, 944.24861983547567, 11.254140493573098, 0.0, 0.0, 0.0, 0.49723967095126786, 0.0, 0.0, 0.0], [0.0, 943.0, 11.0, 0.0, 0.0, 0.0, 0.6728284813491805, 0.0, 0.0, 0.0], [0.0, 940.12406640101676, 13.875933598983288, 0.0, 0.0, 0.0, 0.062033200508355951, 0.0, 0.0, 0.0], [0.0, 941.0, 14.0, 0.0, 0.0, 0.0, 0.0, 0.0, 0.0, 0.0], [0.0, 944.22858275415069, 7.8857086229246312, 0.0, 0.0, 0.0, 0.57145688537684425, 0.0, 0.0, 0.0], [0.0, 940.38025354958245, 12.619746450417521, 0.0, 0.0, 0.0, 0.0, 0.0, 0.0, 0.0], [0.0, 945.41614472681738, 7.5838552731826443, 0.0, 0.0, 0.0, 0.0, 0.0, 0.0, 0.0], [0.0, 946.86847561846116, 5.1315243815388945, 0.0, 0.0, 0.0, 1.5198323323069347, 0.0, 0.0, 0.0], [0.0, 949.09506813532448, 2.9049318646755395, 0.0, 0.0, 0.0, 5.4163692368178058, 0.0, 0.0, 0.0], [0.0, 941.0, 11.0, 0.0, 0.0, 0.0, 0.0, 0.0, 0.0, 0.0], [0.0, 938.73932753706811, 13.260672462931868, 0.0, 0.0, 0.0, 0.0, 0.0, 0.0, 0.0], [0.0, 940.56371976072467, 11.43628023927533, 0.0, 0.0, 0.0, 1.1274395214493409, 0.0, 0.0, 0.0], [0.0, 939.01020068197067, 11.989799318029284, 0.0, 0.0, 0.0, 0.010200681970715629, 0.0, 0.0, 0.0], [0.0, 939.58767796058362, 12.412322039416395, 0.0, 0.0, 0.0, 0.0, 0.0, 0.0, 0.0], [0.0, 944.35629055564129, 9.0958062962391519, 0.0, 0.0, 0.0, 0.0, 0.0, 0.0, 0.0], [0.0, 943.26060001452436, 8.7393999854756181, 0.0, 0.0, 0.0, 0.52120002904876395, 0.0, 0.0, 0.0], [0.0, 940.20053122310287, 8.8997343884485893, 0.0, 0.0, 0.0, 0.10026561155141021, 0.0, 0.0, 0.0], [0.0, 941.0, 7.0887966787751537, 0.0, 0.0, 0.0, 1.9112033212248463, 0.0, 0.0, 0.0], [0.0, 937.05579964297681, 7.0, 0.0, 0.0, 0.0, 0.0, 0.0, 0.0, 0.0], [0.0, 938.0, 7.0, 0.0, 0.0, 0.0, 0.29161627446463123, 0.0, 0.0, 0.0], [0.0, 937.54573960159496, 7.4542603984050579, 0.0, 0.0, 0.0, 0.77286980079747125, 0.0, 0.0, 0.0], [0.0, 935.23589181657178, 7.7641081834281644, 0.0, 0.0, 0.0, 0.0, 0.0, 0.0, 0.0], [0.0, 936.0, 6.1164160947694244, 0.0, 0.0, 0.0, 0.0, 0.0, 0.0, 0.0], [0.0, 932.27340010721787, 8.7265998927821808, 0.0, 0.0, 0.0, 0.0, 0.0, 0.0, 0.0], [0.0, 932.51357967281422, 9.2432101635928916, 0.0, 0.0, 0.0, 0.0, 0.0, 0.0, 0.0], [0.0, 935.55696729446572, 8.2953551370228382, 0.0, 0.0, 0.0, 1.704644862977162, 0.0, 0.0, 0.0], [0.0, 935.0, 11.0, 0.0, 0.0, 0.0, 0.0, 0.0, 0.0, 0.0], [0.0, 936.86950843823524, 7.9826881864706545, 0.0, 0.0, 0.0, 0.0, 0.0, 0.0, 0.0], [0.0, 940.27470827944592, 4.1758751616623222, 0.0, 0.0, 0.0, 0.5494165588917852, 0.0, 0.0, 0.0], [0.0, 939.0, 3.0555811496077991, 0.0, 0.0, 0.0, 0.94441885039220075, 0.0, 0.0, 0.0], [0.0, 938.0, 4.0, 0.0, 0.0, 0.0, 3.3427755791603584, 0.0, 0.0, 0.0], [0.0, 931.0, 10.0, 0.0, 0.0, 0.0, 0.0, 0.0, 0.0, 0.0], [0.0, 932.0, 8.1230036249326787, 0.0, 0.0, 0.0, 0.0, 0.0, 0.0, 0.0], [0.0, 933.96727486750046, 7.0, 0.0, 0.0, 0.0, 2.9018246025014705, 0.0, 0.0, 0.0], [0.0, 930.5326491871366, 9.4020524385901751, 0.0, 0.0, 0.0, 0.53264918713660825, 0.0, 0.0, 0.0], [0.0, 929.5252735246753, 10.0, 0.0, 0.0, 0.0, 0.0, 0.0, 0.0, 0.0], [0.0, 932.03673180785256, 7.9632681921474724, 0.0, 0.0, 0.0, 0.0, 0.0, 0.0, 0.0], [0.0, 935.0, 5.2777747307863256, 0.0, 0.0, 0.0, 0.0, 0.0, 0.0, 0.0], [0.0, 933.73702955544582, 5.2629704445541465, 0.0, 0.0, 0.0, 0.36851477772292668, 0.0, 0.0, 0.0], [0.0, 934.0, 5.0, 0.0, 0.0, 0.0, 0.48112834834032647, 0.0, 0.0, 0.0], [0.0, 932.09749679274341, 6.6016688048377139, 0.0, 0.0, 0.0, 0.69916559758114294, 0.0, 0.0, 0.0], [0.0, 934.04034773973274, 5.9596522602672479, 0.0, 0.0, 0.0, 0.0, 0.0, 0.0, 0.0], [0.0, 934.0, 7.0, 0.0, 0.0, 0.0, 0.0, 0.0, 0.0, 0.0], [0.0, 938.33048593003025, 4.935611255975779, 0.0, 0.0, 0.0, 1.3304859300302765, 0.0, 0.0, 0.0], [0.0, 941.122631539395, 2.7018947684839896, 0.0, 0.0, 0.0, 4.1226315393950133, 0.0, 0.0, 0.0], [0.0, 937.01079851820577, 5.9892014817942449, 0.0, 0.0, 0.0, 0.0, 0.0, 0.0, 0.0], [0.0, 939.0, 5.0, 0.0, 0.0, 0.0, 0.51038545374247257, 0.0, 0.0, 0.0], [0.0, 938.78464067786649, 6.2153593221334615, 0.0, 0.0, 0.0, 0.78464067786653824, 0.0, 0.0, 0.0], [0.0, 937.0, 7.0, 0.0, 0.0, 0.0, 0.0, 0.0, 0.0, 0.0], [0.0, 938.0, 6.0, 0.0, 0.0, 0.0, 0.0, 0.0, 0.0, 0.0], [0.0, 941.0, 4.0, 0.0, 0.0, 0.0, 0.0, 0.0, 0.0, 0.0], [0.0, 940.0, 4.0, 0.0, 0.0, 0.0, 0.0, 0.0, 0.0, 0.0], [0.0, 938.49375919805061, 6.0, 0.0, 0.0, 0.0, 0.0, 0.0, 0.0, 0.0], [0.0, 937.86004018863446, 5.1399598113655793, 0.0, 0.0, 0.0, 1.2900602829516306, 0.0, 0.0, 0.0], [0.0, 934.71982804574645, 7.0, 0.0, 0.0, 0.0, 0.0, 0.0, 0.0, 0.0], [0.0, 935.64383003852265, 5.3561699614773932, 0.0, 0.0, 0.0, 2.4657450577839102, 0.0, 0.0, 0.0], [0.0, 934.18157303864484, 6.1815730386448271, 0.0, 0.0, 0.0, 0.0, 0.0, 0.0, 0.0], [0.0, 933.0, 6.1605752508818092, 0.0, 0.0, 0.0, 0.83942474911819087, 0.0, 0.0, 0.0], [0.0, 931.0, 8.0, 0.0, 0.0, 0.0, 0.0, 0.0, 0.0, 0.0], [0.0, 931.50182110321532, 7.4981788967846619, 0.0, 0.0, 0.0, 0.0, 0.0, 0.0, 0.0], [0.0, 932.66313686791898, 5.0105893962429269, 0.0, 0.0, 0.0, 1.3262737358380488, 0.0, 0.0, 0.0], [0.0, 930.26259748417147, 6.0, 0.0, 0.0, 0.0, 0.73740251582851313, 0.0, 0.0, 0.0], [0.0, 928.03284037212279, 4.9671596278771819, 0.0, 0.0, 0.0, 0.032840372122818227, 0.0, 0.0, 0.0], [0.0, 928.49024652811431, 5.0, 0.0, 0.0, 0.0, 0.0, 0.0, 0.0, 0.0], [0.0, 929.08499189138342, 3.9150081086165418, 0.0, 0.0, 0.0, 0.0, 0.0, 0.0, 0.0], [0.0, 930.0, 3.0, 0.0, 0.0, 0.0, 0.0, 0.0, 0.0, 0.0], [0.0, 928.0, 5.0, 0.0, 0.0, 0.0, 0.0, 0.0, 0.0, 0.0], [0.0, 929.59443330293959, 4.0, 0.0, 0.0, 0.0, 0.0, 0.0, 0.0, 0.0], [0.0, 929.24537949065882, 4.7546205093411569, 0.0, 0.0, 0.0, 0.62268974532942156, 0.0, 0.0, 0.0], [0.0, 927.0, 5.6831497986094144, 0.0, 0.0, 0.0, 0.63370040278117079, 0.0, 0.0, 0.0], [0.0, 926.91984416343666, 6.5400779182816473, 0.0, 0.0, 0.0, 0.0, 0.0, 0.0, 0.0], [0.0, 927.0, 6.0, 0.0, 0.0, 0.0, 0.059437345791232769, 0.0, 0.0, 0.0], [0.0, 925.0, 7.0, 0.0, 0.0, 0.0, 0.0, 0.0, 0.0, 0.0], [0.0, 925.47866215461954, 3.5213378453804869, 0.0, 0.0, 0.0, 0.47866215461951306, 0.0, 0.0, 0.0], [0.0, 924.0, 5.0, 0.0, 0.0, 0.0, 0.45985130000467539, 0.0, 0.0, 0.0], [0.0, 924.80077455270668, 5.0, 0.0, 0.0, 0.0, 0.0, 0.0, 0.0, 0.0], [0.0, 926.70124982783523, 3.2987501721647661, 0.0, 0.0, 0.0, 0.0, 0.0, 0.0, 0.0], [0.0, 928.0, 1.0, 0.0, 0.0, 0.0, 0.0, 0.0, 0.0, 0.0], [0.0, 927.00388925586924, 1.0, 0.0, 0.0, 0.0, 0.99611074413072098, 0.0, 0.0, 0.0], [0.0, 926.0, 1.2526790100316589, 0.0, 0.0, 0.0, 0.0, 0.0, 0.0, 0.0], [0.0, 925.90540674514762, 1.0, 0.0, 0.0, 0.0, 0.0, 0.0, 0.0, 0.0], [0.0, 924.8349304952427, 1.0, 0.0, 0.0, 0.0, 0.33013900951466146, 0.0, 0.0, 0.0], [0.0, 922.0, 3.0, 0.0, 0.0, 0.0, 0.36580826711759545, 0.0, 0.0, 0.0], [0.0, 920.0, 5.0, 0.0, 0.0, 0.0, 0.0, 0.0, 0.0, 0.0], [0.0, 923.46534426940195, 4.5346557305980424, 0.0, 0.0, 0.0, 0.0, 0.0, 0.0, 0.0], [0.0, 924.53213794619785, 3.4678620538021141, 0.0, 0.0, 0.0, 0.0, 0.0, 0.0, 0.0], [0.0, 925.0, 2.0, 0.0, 0.0, 0.0, 0.0, 0.0, 0.0, 0.0], [0.0, 925.0, 2.0, 0.0, 0.0, 0.0, 0.0, 0.0, 0.0, 0.0], [0.0, 923.0, 3.0, 0.0, 0.0, 0.0, 0.20495617116426243, 0.0, 0.0, 0.0], [0.0, 923.0, 3.4927058487169562, 0.0, 0.0, 0.0, 0.0, 0.0, 0.0, 0.0], [0.0, 924.40944653308009, 2.0, 0.0, 0.0, 0.0, 0.0, 0.0, 0.0, 0.0], [0.0, 925.72105913693963, 2.0, 0.0, 0.0, 0.0, 0.0, 0.0, 0.0, 0.0], [0.0, 929.2647102197941, 2.7352897802058518, 0.0, 0.0, 0.0, 0.26471021979414799, 0.0, 0.0, 0.0], [0.0, 929.0, 3.0, 0.0, 0.0, 0.0, 0.0, 0.0, 0.0, 0.0], [0.0, 927.0, 4.9797271166356563, 0.0, 0.0, 0.0, 0.0, 0.0, 0.0, 0.0], [0.0, 927.40905228882002, 2.590947711180009, 0.0, 0.0, 0.0, 0.40905228881999117, 0.0, 0.0, 0.0], [0.0, 926.0, 4.0, 0.0, 0.0, 0.0, 2.1831299880525754, 0.0, 0.0, 0.0], [0.0, 922.0, 8.0, 0.0, 0.0, 0.0, 0.0, 0.0, 0.0, 0.0], [0.0, 922.65514950277498, 7.3448504972250452, 0.0, 0.0, 0.0, 0.65514950277495465, 0.0, 0.0, 0.0], [0.0, 921.19845600089423, 8.7023159986585803, 0.0, 0.0, 0.0, 0.0, 0.0, 0.0, 0.0], [0.0, 923.0, 5.8281569977109733, 0.0, 0.0, 0.0, 0.0, 0.0, 0.0, 0.0], [0.0, 924.49662389181537, 3.2516880540923179, 0.0, 0.0, 0.0, 0.0, 0.0, 0.0, 0.0], [0.0, 926.0, 1.6132982964534988, 0.0, 0.0, 0.0, 0.77340340709300259, 0.0, 0.0, 0.0], [0.0, 924.0, 3.0, 0.0, 0.0, 0.0, 1.0291315541808284, 0.0, 0.0, 0.0], [0.0, 923.0, 5.0, 0.0, 0.0, 0.0, 0.0, 0.0, 0.0, 0.0], [0.0, 924.86288861361993, 5.0, 0.0, 0.0, 0.0, 0.0, 0.0, 0.0, 0.0], [0.0, 920.52684176610921, 7.473158233890814, 0.0, 0.0, 0.0, 0.52684176610918576, 0.0, 0.0, 0.0], [0.0, 919.0, 8.0, 0.0, 0.0, 0.0, 0.0, 0.0, 0.0, 0.0], [0.0, 921.40866555220873, 5.3942229651942037, 0.0, 0.0, 0.0, 0.80288851740289824, 0.0, 0.0, 0.0], [0.0, 922.0, 4.5745858995469302, 0.0, 0.0, 0.0, 0.85082820090613875, 0.0, 0.0, 0.0], [0.0, 918.3777568602826, 7.0, 0.0, 0.0, 0.0, 0.3777568602826159, 0.0, 0.0, 0.0], [0.0, 919.03568398788127, 6.9643160121187373, 0.0, 0.0, 0.0, 1.5267629909109472, 0.0, 0.0, 0.0], [0.0, 918.11963813912814, 8.4401809304359361, 0.0, 0.0, 0.0, 0.55981906956406335, 0.0, 0.0, 0.0], [0.0, 920.76806114941132, 7.231938850588624, 0.0, 0.0, 0.0, 3.8403057470568811, 0.0, 0.0, 0.0], [0.0, 917.0, 10.16978128372658, 0.0, 0.0, 0.0, 1.6604374325468403, 0.0, 0.0, 0.0], [0.0, 917.58376483202494, 9.554980223966794, 0.0, 0.0, 0.0, 0.0, 0.0, 0.0, 0.0], [0.0, 918.04997716904916, 7.9000456619017392, 0.0, 0.0, 0.0, 0.0, 0.0, 0.0, 0.0], [0.0, 918.95769790395195, 6.0846041920960223, 0.0, 0.0, 0.0, 0.0, 0.0, 0.0, 0.0], [0.0, 918.0, 4.2174605917101458, 0.0, 0.0, 0.0, 2.6738091124347809, 0.0, 0.0, 0.0], [0.0, 916.0, 8.0, 0.0, 0.0, 0.0, 0.0, 0.0, 0.0, 0.0], [0.0, 916.34523089540482, 8.6547691045951805, 0.0, 0.0, 0.0, 0.0, 0.0, 0.0, 0.0], [0.0, 918.0, 6.5218515211400607, 0.0, 0.0, 0.0, 0.0, 0.0, 0.0, 0.0], [0.0, 919.85660241918538, 5.1433975808146393, 0.0, 0.0, 0.0, 2.5698072575560817, 0.0, 0.0, 0.0], [0.0, 920.24047116345389, 6.5190576730921386, 0.0, 0.0, 0.0, 0.72141349036179248, 0.0, 0.0, 0.0], [0.0, 918.44679701222253, 8.0, 0.0, 0.0, 0.0, 0.44679701222253004, 0.0, 0.0, 0.0], [0.0, 918.0, 8.0, 0.0, 0.0, 0.0, 0.0, 0.0, 0.0, 0.0], [0.0, 916.92650108396958, 10.0, 0.0, 0.0, 0.0, 0.0, 0.0, 0.0, 0.0], [0.0, 917.09564260187904, 7.9043573981209443, 0.0, 0.0, 0.0, 0.0, 0.0, 0.0, 0.0], [0.0, 918.0, 7.0, 0.0, 0.0, 0.0, 0.0, 0.0, 0.0, 0.0], [0.0, 918.0, 6.0833119127284974, 0.0, 0.0, 0.0, 0.91668808727150242, 0.0, 0.0, 0.0], [0.0, 917.60056874507063, 5.1997156274646654, 0.0, 0.0, 0.0, 0.80028437253533458, 0.0, 0.0, 0.0], [0.0, 917.58058664992961, 5.4194133500704291, 0.0, 0.0, 0.0, 1.161173299859142, 0.0, 0.0, 0.0], [0.0, 916.19011333465198, 7.809886665348043, 0.0, 0.0, 0.0, 0.19011333465195671, 0.0, 0.0, 0.0], [0.0, 917.48237090345697, 7.0352581930860882, 0.0, 0.0, 0.0, 0.48237090345695571, 0.0, 0.0, 0.0], [0.0, 917.78953509470364, 7.2104649052963907, 0.0, 0.0, 0.0, 2.3686052841108269, 0.0, 0.0, 0.0], [0.0, 919.52986827756285, 7.205197583655794, 0.0, 0.0, 0.0, 2.6493413878140215, 0.0, 0.0, 0.0], [0.0, 920.62874068915403, 5.5568889662690033, 0.0, 0.0, 0.0, 8.1437034457699866, 0.0, 0.0, 0.0], [0.0, 911.60398577549745, 14.0, 0.0, 0.0, 0.0, 0.60398577549746302, 0.0, 0.0, 0.0], [0.0, 912.58709666992775, 13.825806660144407, 0.0, 0.0, 0.0, 0.0, 0.0, 0.0, 0.0], [0.0, 913.10706924603767, 9.8929307539623785, 0.0, 0.0, 0.0, 0.53534623018811178, 0.0, 0.0, 0.0], [0.0, 909.0, 14.0, 0.0, 0.0, 0.0, 0.35479942832400152, 0.0, 0.0, 0.0], [0.0, 906.11497378830904, 14.865863913639512, 0.0, 0.0, 0.0, 0.15329838441198734, 0.0, 0.0, 0.0], [0.0, 908.98523535647269, 11.517225417448545, 0.0, 0.0, 0.0, 3.980313808630235, 0.0, 0.0, 0.0], [0.0, 911.85549692463633, 8.1685869212575781, 0.0, 0.0, 0.0, 7.807329232848482, 0.0, 0.0, 0.0], [0.0, 905.0, 15.0, 0.0, 0.0, 0.0, 2.5657280727117548, 0.0, 0.0, 0.0], [0.0, 900.84776153134169, 18.152238468658329, 0.0, 0.0, 0.0, 0.46194038283541816, 0.0, 0.0, 0.0], [0.0, 903.61614417970043, 16.0, 0.0, 0.0, 0.0, 0.0, 0.0, 0.0, 0.0], [0.0, 904.51973984915344, 13.960520301693204, 0.0, 0.0, 0.0, 1.5592195474601929, 0.0, 0.0, 0.0], [0.0, 900.78745917206618, 14.21254082793379, 0.0, 0.0, 0.0, 0.0, 0.0, 0.0, 0.0], [0.0, 901.9788697106427, 10.347420192904892, 0.0, 0.0, 0.0, 0.65257980709510799, 0.0, 0.0, 0.0], [0.0, 901.8096768949631, 9.7854846575553953, 0.0, 0.0, 0.0, 0.0, 0.0, 0.0, 0.0], [0.0, 904.78741136286669, 6.6062943185666789, 0.0, 0.0, 0.0, 0.3937056814333213, 0.0, 0.0, 0.0], [0.0, 905.83040147706902, 6.5847992614654673, 0.0, 0.0, 0.0, 1.2456022156035991, 0.0, 0.0, 0.0], [0.0, 904.0, 8.934395551423794, 0.0, 0.0, 0.0, 0.065604448576205426, 0.0, 0.0, 0.0], [0.0, 903.84004797751675, 7.3199040449665898, 0.0, 0.0, 0.0, 1.6800959550334107, 0.0, 0.0, 0.0], [0.0, 901.0, 11.0, 0.0, 0.0, 0.0, 0.55664855045472095, 0.0, 0.0, 0.0], [0.0, 896.93679529900226, 12.126409401995572, 0.0, 0.0, 0.0, 0.0, 0.0, 0.0, 0.0], [0.0, 901.4122857538764, 8.587714246123582, 0.0, 0.0, 0.0, 0.80409525129213921, 0.0, 0.0, 0.0], [0.0, 902.17934903216076, 8.8206509678392244, 0.0, 0.0, 0.0, 1.0760941929646537, 0.0, 0.0, 0.0], [0.0, 898.66548235584639, 12.334517644153598, 0.0, 0.0, 0.0, 0.83274117792320101, 0.0, 0.0, 0.0], [0.0, 901.49099698014857, 11.018006039702955, 0.0, 0.0, 0.0, 0.24549849007426122, 0.0, 0.0, 0.0], [0.0, 902.81609566061024, 9.0, 0.0, 0.0, 0.0, 0.81609566061023309, 0.0, 0.0, 0.0], [0.0, 902.39117015047418, 7.2176596990516657, 0.0, 0.0, 0.0, 0.78234030094833462, 0.0, 0.0, 0.0], [0.0, 899.7643391989136, 9.0, 0.0, 0.0, 0.0, 0.23566080108637952, 0.0, 0.0, 0.0], [0.0, 900.0, 8.0, 0.0, 0.0, 0.0, 0.0, 0.0, 0.0, 0.0], [0.0, 900.0, 7.0, 0.0, 0.0, 0.0, 0.67498189874008607, 0.0, 0.0, 0.0], [0.0, 899.45467580899151, 7.5453241910085023, 0.0, 0.0, 0.0, 0.0, 0.0, 0.0, 0.0], [0.0, 903.40130169379665, 5.3980474593050376, 0.0, 0.0, 0.0, 0.20065084689832069, 0.0, 0.0, 0.0], [0.0, 904.86312296631172, 3.2053155505323421, 0.0, 0.0, 0.0, 0.93156148315588594, 0.0, 0.0, 0.0], [0.0, 903.0, 6.0, 0.0, 0.0, 0.0, 0.0, 0.0, 0.0, 0.0], [0.0, 902.38913644524621, 3.6108635547538275, 0.0, 0.0, 0.0, 0.0, 0.0, 0.0, 0.0], [0.0, 903.08536846152595, 3.0, 0.0, 0.0, 0.0, 1.829263076948163, 0.0, 0.0, 0.0], [0.0, 900.1970382585024, 5.8029617414976284, 0.0, 0.0, 0.0, 0.19703825850237117, 0.0, 0.0, 0.0], [0.0, 900.54439614252669, 5.4556038574733137, 0.0, 0.0, 0.0, 0.54439614252668611, 0.0, 0.0, 0.0], [0.0, 900.2222364998679, 7.8333226250990693, 0.0, 0.0, 0.0, 0.055559124966976792, 0.0, 0.0, 0.0], [0.0, 901.65363046513323, 7.0, 0.0, 0.0, 0.0, 0.0, 0.0, 0.0, 0.0], [0.0, 903.09419581577413, 5.7174125526777191, 0.0, 0.0, 0.0, 0.18839163154818739, 0.0, 0.0, 0.0], [0.0, 901.67182849619678, 5.0, 0.0, 0.0, 0.0, 0.0, 0.0, 0.0, 0.0], [0.0, 900.0, 5.0, 0.0, 0.0, 0.0, 0.0, 0.0, 0.0, 0.0], [0.0, 901.72820388208754, 3.2717961179124675, 0.0, 0.0, 0.0, 1.7282038820875325, 0.0, 0.0, 0.0], [0.0, 899.0, 4.0, 0.0, 0.0, 0.0, 0.0, 0.0, 0.0, 0.0], [0.0, 898.18639631494739, 3.0, 0.0, 0.0, 0.0, 0.0, 0.0, 0.0, 0.0], [0.0, 900.0, 2.0, 0.0, 0.0, 0.0, 0.0, 0.0, 0.0, 0.0], [0.0, 901.0, 1.0, 0.0, 0.0, 0.0, 0.0, 0.0, 0.0, 0.0], [0.0, 901.0, 1.0, 0.0, 0.0, 0.0, -1.0, 0.0, 0.0, 0.0], [0.0, 901.0, 1.0, 0.0, 0.0, 0.0, -1.0, 0.0, 0.0, 0.0], [0.0, 901.0, 1.0, 0.0, 0.0, 0.0, -1.0, 0.0, 0.0, 0.0], [0.0, 901.0, 1.0, 0.0, 0.0, 0.0, -1.0, 0.0, 0.0, 0.0], [0.0, 901.0, 1.0, 0.0, 0.0, 0.0, -1.0, 0.0, 0.0, 0.0], [0.0, 901.0, 1.0, 0.0, 0.0, 0.0, -1.0, 0.0, 0.0, 0.0], [0.0, 901.0, 1.0, 0.0, 0.0, 0.0, -1.0, 0.0, 0.0, 0.0], [0.0, 901.0, 1.0, 0.0, 0.0, 0.0, -1.0, 0.0, 0.0, 0.0], [0.0, 901.0, 1.0, 0.0, 0.0, 0.0, -1.0, 0.0, 0.0, 0.0], [0.0, 901.0, 1.0, 0.0, 0.0, 0.0, -1.0, 0.0, 0.0, 0.0], [0.0, 901.0, 1.0, 0.0, 0.0, 0.0, -1.0, 0.0, 0.0, 0.0], [0.0, 901.0, 1.0, 0.0, 0.0, 0.0, -1.0, 0.0, 0.0, 0.0], [0.0, 901.0, 1.0, 0.0, 0.0, 0.0, -1.0, 0.0, 0.0, 0.0], [0.0, 901.0, 1.0, 0.0, 0.0, 0.0, -1.0, 0.0, 0.0, 0.0], [0.0, 901.0, 1.0, 0.0, 0.0, 0.0, -1.0, 0.0, 0.0, 0.0], [0.0, 901.0, 1.0, 0.0, 0.0, 0.0, -1.0, 0.0, 0.0, 0.0], [0.0, 901.0, 1.0, 0.0, 0.0, 0.0, -1.0, 0.0, 0.0, 0.0], [0.0, 901.0, 1.0, 0.0, 0.0, 0.0, -1.0, 0.0, 0.0, 0.0], [0.0, 901.0, 1.0, 0.0, 0.0, 0.0, -1.0, 0.0, 0.0, 0.0], [0.0, 901.0, 1.0, 0.0, 0.0, 0.0, -1.0, 0.0, 0.0, 0.0], [0.0, 901.0, 1.0, 0.0, 0.0, 0.0, -1.0, 0.0, 0.0, 0.0], [0.0, 901.0, 1.0, 0.0, 0.0, 0.0, -1.0, 0.0, 0.0, 0.0], [0.0, 901.0, 1.0, 0.0, 0.0, 0.0, -1.0, 0.0, 0.0, 0.0], [0.0, 901.0, 1.0, 0.0, 0.0, 0.0, -1.0, 0.0, 0.0, 0.0], [0.0, 901.0, 1.0, 0.0, 0.0, 0.0, -1.0, 0.0, 0.0, 0.0], [0.0, 901.0, 1.0, 0.0, 0.0, 0.0, -1.0, 0.0, 0.0, 0.0], [0.0, 901.0, 1.0, 0.0, 0.0, 0.0, -1.0, 0.0, 0.0, 0.0], [0.0, 901.0, 1.0, 0.0, 0.0, 0.0, -1.0, 0.0, 0.0, 0.0], [0.0, 901.0, 1.0, 0.0, 0.0, 0.0, -1.0, 0.0, 0.0, 0.0], [0.0, 901.0, 1.0, 0.0, 0.0, 0.0, -1.0, 0.0, 0.0, 0.0], [0.0, 901.0, 1.0, 0.0, 0.0, 0.0, -1.0, 0.0, 0.0, 0.0], [0.0, 901.0, 1.0, 0.0, 0.0, 0.0, -1.0, 0.0, 0.0, 0.0], [0.0, 901.0, 1.0, 0.0, 0.0, 0.0, -1.0, 0.0, 0.0, 0.0], [0.0, 901.0, 1.0, 0.0, 0.0, 0.0, -1.0, 0.0, 0.0, 0.0], [0.0, 901.0, 1.0, 0.0, 0.0, 0.0, -1.0, 0.0, 0.0, 0.0], [0.0, 901.0, 1.0, 0.0, 0.0, 0.0, -1.0, 0.0, 0.0, 0.0], [0.0, 901.0, 1.0, 0.0, 0.0, 0.0, -1.0, 0.0, 0.0, 0.0], [0.0, 901.0, 1.0, 0.0, 0.0, 0.0, -1.0, 0.0, 0.0, 0.0], [0.0, 901.0, 1.0, 0.0, 0.0, 0.0, -1.0, 0.0, 0.0, 0.0], [0.0, 901.0, 1.0, 0.0, 0.0, 0.0, -1.0, 0.0, 0.0, 0.0], [0.0, 901.0, 1.0, 0.0, 0.0, 0.0, -1.0, 0.0, 0.0, 0.0], [0.0, 901.0, 1.0, 0.0, 0.0, 0.0, -1.0, 0.0, 0.0, 0.0], [0.0, 901.0, 1.0, 0.0, 0.0, 0.0, -1.0, 0.0, 0.0, 0.0], [0.0, 901.0, 1.0, 0.0, 0.0, 0.0, -1.0, 0.0, 0.0, 0.0], [0.0, 901.0, 1.0, 0.0, 0.0, 0.0, -1.0, 0.0, 0.0, 0.0], [0.0, 901.0, 1.0, 0.0, 0.0, 0.0, -1.0, 0.0, 0.0, 0.0], [0.0, 901.0, 1.0, 0.0, 0.0, 0.0, -1.0, 0.0, 0.0, 0.0], [0.0, 901.0, 1.0, 0.0, 0.0, 0.0, -1.0, 0.0, 0.0, 0.0], [0.0, 901.0, 1.0, 0.0, 0.0, 0.0, -1.0, 0.0, 0.0, 0.0], [0.0, 901.0, 1.0, 0.0, 0.0, 0.0, -1.0, 0.0, 0.0, 0.0], [0.0, 901.0, 1.0, 0.0, 0.0, 0.0, -1.0, 0.0, 0.0, 0.0], [0.0, 901.0, 1.0, 0.0, 0.0, 0.0, -1.0, 0.0, 0.0, 0.0], [0.0, 901.0, 1.0, 0.0, 0.0, 0.0, -1.0, 0.0, 0.0, 0.0], [0.0, 901.0, 1.0, 0.0, 0.0, 0.0, -1.0, 0.0, 0.0, 0.0], [0.0, 901.0, 1.0, 0.0, 0.0, 0.0, -1.0, 0.0, 0.0, 0.0], [0.0, 901.0, 1.0, 0.0, 0.0, 0.0, -1.0, 0.0, 0.0, 0.0], [0.0, 901.0, 1.0, 0.0, 0.0, 0.0, -1.0, 0.0, 0.0, 0.0], [0.0, 901.0, 1.0, 0.0, 0.0, 0.0, -1.0, 0.0, 0.0, 0.0], [0.0, 901.0, 1.0, 0.0, 0.0, 0.0, -1.0, 0.0, 0.0, 0.0], [0.0, 901.0, 1.0, 0.0, 0.0, 0.0, -1.0, 0.0, 0.0, 0.0], [0.0, 901.0, 1.0, 0.0, 0.0, 0.0, -1.0, 0.0, 0.0, 0.0], [0.0, 901.0, 1.0, 0.0, 0.0, 0.0, -1.0, 0.0, 0.0, 0.0], [0.0, 901.0, 1.0, 0.0, 0.0, 0.0, -1.0, 0.0, 0.0, 0.0], [0.0, 901.0, 1.0, 0.0, 0.0, 0.0, -1.0, 0.0, 0.0, 0.0], [0.0, 901.0, 1.0, 0.0, 0.0, 0.0, -1.0, 0.0, 0.0, 0.0], [0.0, 901.0, 1.0, 0.0, 0.0, 0.0, -1.0, 0.0, 0.0, 0.0], [0.0, 901.0, 1.0, 0.0, 0.0, 0.0, -1.0, 0.0, 0.0, 0.0], [0.0, 901.0, 1.0, 0.0, 0.0, 0.0, -1.0, 0.0, 0.0, 0.0], [0.0, 901.0, 1.0, 0.0, 0.0, 0.0, -1.0, 0.0, 0.0, 0.0], [0.0, 901.0, 1.0, 0.0, 0.0, 0.0, -1.0, 0.0, 0.0, 0.0], [0.0, 901.0, 1.0, 0.0, 0.0, 0.0, -1.0, 0.0, 0.0, 0.0], [0.0, 901.0, 1.0, 0.0, 0.0, 0.0, -1.0, 0.0, 0.0, 0.0], [0.0, 901.0, 1.0, 0.0, 0.0, 0.0, -1.0, 0.0, 0.0, 0.0], [0.0, 901.0, 1.0, 0.0, 0.0, 0.0, -1.0, 0.0, 0.0, 0.0], [0.0, 901.0, 1.0, 0.0, 0.0, 0.0, -1.0, 0.0, 0.0, 0.0], [0.0, 901.0, 1.0, 0.0, 0.0, 0.0, -1.0, 0.0, 0.0, 0.0], [0.0, 901.0, 1.0, 0.0, 0.0, 0.0, -1.0, 0.0, 0.0, 0.0], [0.0, 901.0, 1.0, 0.0, 0.0, 0.0, -1.0, 0.0, 0.0, 0.0], [0.0, 901.0, 1.0, 0.0, 0.0, 0.0, -1.0, 0.0, 0.0, 0.0], [0.0, 901.0, 1.0, 0.0, 0.0, 0.0, -1.0, 0.0, 0.0, 0.0], [0.0, 901.0, 1.0, 0.0, 0.0, 0.0, -1.0, 0.0, 0.0, 0.0], [0.0, 901.0, 1.0, 0.0, 0.0, 0.0, -1.0, 0.0, 0.0, 0.0], [0.0, 901.0, 1.0, 0.0, 0.0, 0.0, -1.0, 0.0, 0.0, 0.0], [0.0, 901.0, 1.0, 0.0, 0.0, 0.0, -1.0, 0.0, 0.0, 0.0], [0.0, 901.0, 1.0, 0.0, 0.0, 0.0, -1.0, 0.0, 0.0, 0.0], [0.0, 901.0, 1.0, 0.0, 0.0, 0.0, -1.0, 0.0, 0.0, 0.0], [0.0, 901.0, 1.0, 0.0, 0.0, 0.0, -1.0, 0.0, 0.0, 0.0], [0.0, 901.0, 1.0, 0.0, 0.0, 0.0, -1.0, 0.0, 0.0, 0.0], [0.0, 901.0, 1.0, 0.0, 0.0, 0.0, -1.0, 0.0, 0.0, 0.0], [0.0, 901.0, 1.0, 0.0, 0.0, 0.0, -1.0, 0.0, 0.0, 0.0], [0.0, 901.0, 1.0, 0.0, 0.0, 0.0, -1.0, 0.0, 0.0, 0.0], [0.0, 901.0, 1.0, 0.0, 0.0, 0.0, -1.0, 0.0, 0.0, 0.0], [0.0, 901.0, 1.0, 0.0, 0.0, 0.0, -1.0, 0.0, 0.0, 0.0], [0.0, 901.0, 1.0, 0.0, 0.0, 0.0, -1.0, 0.0, 0.0, 0.0], [0.0, 901.0, 1.0, 0.0, 0.0, 0.0, -1.0, 0.0, 0.0, 0.0], [0.0, 901.0, 1.0, 0.0, 0.0, 0.0, -1.0, 0.0, 0.0, 0.0], [0.0, 901.0, 1.0, 0.0, 0.0, 0.0, -1.0, 0.0, 0.0, 0.0], [0.0, 901.0, 1.0, 0.0, 0.0, 0.0, -1.0, 0.0, 0.0, 0.0], [0.0, 901.0, 1.0, 0.0, 0.0, 0.0, -1.0, 0.0, 0.0, 0.0], [0.0, 901.0, 1.0, 0.0, 0.0, 0.0, -1.0, 0.0, 0.0, 0.0], [0.0, 901.0, 1.0, 0.0, 0.0, 0.0, -1.0, 0.0, 0.0, 0.0], [0.0, 901.0, 1.0, 0.0, 0.0, 0.0, -1.0, 0.0, 0.0, 0.0], [0.0, 901.0, 1.0, 0.0, 0.0, 0.0, -1.0, 0.0, 0.0, 0.0], [0.0, 901.0, 1.0, 0.0, 0.0, 0.0, -1.0, 0.0, 0.0, 0.0]]
